"Solver Configuration","Instance","Time","Wall Time","Result Code"
"LazySynt","6s11_c0to1.aag","3600.08","3600.11","time limit exceeded"
"LazySynt (genDel)","6s11_c0to1.aag","3600.05","3600.31","time limit exceeded"
"Simple BDD Solver (2016)","6s11_c0to1.aag","3600.03","3599.9","time limit exceeded"
"Simple BDD Solver w/ Abs.","6s11_c0to1.aag","3600.07","3600.0","time limit exceeded"
"Simple BDD Solver w/ Abs. 2","6s11_c0to1.aag","3600.06","3600.0","time limit exceeded"
"LazySynt","6s16_c0to7.aag","3600.04","3599.9","time limit exceeded"
"LazySynt (genDel)","6s16_c0to7.aag","3600.03","3600.0","time limit exceeded"
"Simple BDD Solver (2016)","6s16_c0to7.aag","3600.04","3600.2","time limit exceeded"
"Simple BDD Solver w/ Abs.","6s16_c0to7.aag","3600.01","3600.2","time limit exceeded"
"Simple BDD Solver w/ Abs. 2","6s16_c0to7.aag","618.068","618.054","Maybe realizable"
"LazySynt","6s182_c0to3.aag","3600.1","3600.6","time limit exceeded"
"LazySynt (genDel)","6s182_c0to3.aag","3600.02","3599.9","time limit exceeded"
"Simple BDD Solver (2016)","6s182_c0to3.aag","3600.06","3600.31","time limit exceeded"
"Simple BDD Solver w/ Abs.","6s182_c0to3.aag","3600.04","3599.9","time limit exceeded"
"Simple BDD Solver w/ Abs. 2","6s182_c0to3.aag","3600.03","3599.9","time limit exceeded"
"LazySynt","6s192_c0to1.aag","3600.04","3600.0","time limit exceeded"
"LazySynt (genDel)","6s192_c0to1.aag","3600.02","3600.2","time limit exceeded"
"Simple BDD Solver (2016)","6s192_c0to1.aag","3600.04","3599.9","time limit exceeded"
"Simple BDD Solver w/ Abs.","6s192_c0to1.aag","3600.03","3599.91","time limit exceeded"
"Simple BDD Solver w/ Abs. 2","6s192_c0to1.aag","3600.02","3599.9","time limit exceeded"
"LazySynt","add128n.aag","2.768","2.77691","No output"
"LazySynt (genDel)","add128n.aag","2.704","2.71541","No output"
"Simple BDD Solver (2016)","add128n.aag","9.46","9.46291","Realizable"
"Simple BDD Solver w/ Abs.","add128n.aag","47.088","47.0888","Realizable"
"Simple BDD Solver w/ Abs. 2","add128n.aag","47.612","47.6146","Realizable"
"LazySynt","add160n.aag","4.636","4.64867","No output"
"LazySynt (genDel)","add160n.aag","4.664","4.6727","No output"
"Simple BDD Solver (2016)","add160n.aag","15.496","15.4967","Realizable"
"Simple BDD Solver w/ Abs.","add160n.aag","246.6","246.605","Realizable"
"Simple BDD Solver w/ Abs. 2","add160n.aag","328.936","328.921","Realizable"
"LazySynt","add192n.aag","10.22","10.2327","No output"
"LazySynt (genDel)","add192n.aag","10.344","10.3545","No output"
"Simple BDD Solver (2016)","add192n.aag","15.948","15.9531","Realizable"
"Simple BDD Solver w/ Abs.","add192n.aag","239.108","239.115","Realizable"
"Simple BDD Solver w/ Abs. 2","add192n.aag","301.652","301.641","Realizable"
"LazySynt","add224n.aag","20.752","20.7658","No output"
"LazySynt (genDel)","add224n.aag","20.752","20.7637","No output"
"Simple BDD Solver (2016)","add224n.aag","77.904","77.9023","Realizable"
"Simple BDD Solver w/ Abs.","add224n.aag","616.024","616.02","Realizable"
"Simple BDD Solver w/ Abs. 2","add224n.aag","650.644","650.695","Realizable"
"LazySynt","add256n.aag","23.728","23.7365","No output"
"LazySynt (genDel)","add256n.aag","23.856","23.8704","No output"
"Simple BDD Solver (2016)","add256n.aag","34.544","34.5497","Realizable"
"Simple BDD Solver w/ Abs.","add256n.aag","644.196","644.178","Realizable"
"Simple BDD Solver w/ Abs. 2","add256n.aag","609.928","609.975","Realizable"
"LazySynt","amba10b24n.aag","1578.0","1578.14","No output"
"LazySynt (genDel)","amba10b24n.aag","2607.74","2608.0","No output"
"Simple BDD Solver (2016)","amba10b24n.aag","12.468","12.4705","Realizable"
"Simple BDD Solver w/ Abs.","amba10b24n.aag","34.564","34.564","Realizable"
"Simple BDD Solver w/ Abs. 2","amba10b24n.aag","43.096","43.0985","Realizable"
"LazySynt","amba10f36unrealy.aag","3600.04","3600.4","time limit exceeded"
"LazySynt (genDel)","amba10f36unrealy.aag","3600.02","3599.9","time limit exceeded"
"Simple BDD Solver (2016)","amba10f36unrealy.aag","51.032","51.0335","Unrealizable"
"Simple BDD Solver w/ Abs.","amba10f36unrealy.aag","395.752","395.76","Unrealizable"
"Simple BDD Solver w/ Abs. 2","amba10f36unrealy.aag","419.804","419.811","Unrealizable"
"LazySynt","amba12b4unrealy.aag","1780.99","1781.0","Unrealizable"
"LazySynt (genDel)","amba12b4unrealy.aag","3600.06","3600.31","time limit exceeded"
"Simple BDD Solver (2016)","amba12b4unrealy.aag","50.424","50.4276","Unrealizable"
"Simple BDD Solver w/ Abs.","amba12b4unrealy.aag","32.052","32.0549","Unrealizable"
"Simple BDD Solver w/ Abs. 2","amba12b4unrealy.aag","61.144","61.1503","Unrealizable"
"LazySynt","amba12f50y.aag","3600.07","3600.31","time limit exceeded"
"LazySynt (genDel)","amba12f50y.aag","3600.02","3600.31","time limit exceeded"
"Simple BDD Solver (2016)","amba12f50y.aag","110.02","110.019","Realizable"
"Simple BDD Solver w/ Abs.","amba12f50y.aag","1881.21","1881.3","Realizable"
"Simple BDD Solver w/ Abs. 2","amba12f50y.aag","647.964","647.957","Realizable"
"LazySynt","amba14c30y.aag","3600.05","3600.6","time limit exceeded"
"LazySynt (genDel)","amba14c30y.aag","3600.1","3600.0","time limit exceeded"
"Simple BDD Solver (2016)","amba14c30y.aag","129.872","129.887","Realizable"
"Simple BDD Solver w/ Abs.","amba14c30y.aag","61.94","61.9589","Realizable"
"Simple BDD Solver w/ Abs. 2","amba14c30y.aag","49.408","49.4234","Realizable"
"LazySynt","amba14f52unrealn.aag","3600.08","3600.1","time limit exceeded"
"LazySynt (genDel)","amba14f52unrealn.aag","3600.11","3600.0","time limit exceeded"
"Simple BDD Solver (2016)","amba14f52unrealn.aag","278.372","278.388","Unrealizable"
"Simple BDD Solver w/ Abs.","amba14f52unrealn.aag","3600.07","3599.9","time limit exceeded"
"Simple BDD Solver w/ Abs. 2","amba14f52unrealn.aag","3600.05","3599.9","time limit exceeded"
"LazySynt","amba16c6unrealy.aag","3600.08","3600.1","time limit exceeded"
"LazySynt (genDel)","amba16c6unrealy.aag","3600.07","3600.31","time limit exceeded"
"Simple BDD Solver (2016)","amba16c6unrealy.aag","362.708","362.698","Unrealizable"
"Simple BDD Solver w/ Abs.","amba16c6unrealy.aag","170.236","170.245","Unrealizable"
"Simple BDD Solver w/ Abs. 2","amba16c6unrealy.aag","445.764","445.806","Unrealizable"
"LazySynt","amba16f110n.aag","3600.1","3600.1","time limit exceeded"
"LazySynt (genDel)","amba16f110n.aag","3600.06","3600.6","time limit exceeded"
"Simple BDD Solver (2016)","amba16f110n.aag","2182.29","2182.2","Unrealizable"
"Simple BDD Solver w/ Abs.","amba16f110n.aag","3600.05","3600.2","time limit exceeded"
"Simple BDD Solver w/ Abs. 2","amba16f110n.aag","3600.05","3600.2","time limit exceeded"
"LazySynt","amba2match3.aag","0.228","0.230629","Unrealizable"
"LazySynt (genDel)","amba2match3.aag","0.224","0.227018","Unrealizable"
"Simple BDD Solver (2016)","amba2match3.aag","0.192","0.194871","Unrealizable"
"Simple BDD Solver w/ Abs.","amba2match3.aag","0.124","0.126966","Unrealizable"
"Simple BDD Solver w/ Abs. 2","amba2match3.aag","0.124","0.12647","Unrealizable"
"LazySynt","amba2match4.aag","0.224","0.230233","Unrealizable"
"LazySynt (genDel)","amba2match4.aag","0.224","0.227499","Unrealizable"
"Simple BDD Solver (2016)","amba2match4.aag","0.196","0.19942","Unrealizable"
"Simple BDD Solver w/ Abs.","amba2match4.aag","0.088","0.093325","Unrealizable"
"Simple BDD Solver w/ Abs. 2","amba2match4.aag","0.092","0.09416","Unrealizable"
"LazySynt","amba2match5.aag","0.344","0.346956","Unrealizable"
"LazySynt (genDel)","amba2match5.aag","0.36","0.362745","Unrealizable"
"Simple BDD Solver (2016)","amba2match5.aag","0.344","0.347712","Unrealizable"
"Simple BDD Solver w/ Abs.","amba2match5.aag","0.296","0.300023","Unrealizable"
"Simple BDD Solver w/ Abs. 2","amba2match5.aag","0.296","0.30034","Unrealizable"
"LazySynt","amba4match5.aag","3600.04","3599.9","time limit exceeded"
"LazySynt (genDel)","amba4match5.aag","3600.08","3600.1","time limit exceeded"
"Simple BDD Solver (2016)","amba4match5.aag","2922.76","2922.68","Unrealizable"
"Simple BDD Solver w/ Abs.","amba4match5.aag","31.132","31.1368","Unrealizable"
"Simple BDD Solver w/ Abs. 2","amba4match5.aag","35.728","35.7346","Unrealizable"
"LazySynt","amba5match5.aag","2048.5","2048.63","Unrealizable"
"LazySynt (genDel)","amba5match5.aag","2096.87","2096.82","Unrealizable"
"Simple BDD Solver (2016)","amba5match5.aag","1208.41","1208.48","Unrealizable"
"Simple BDD Solver w/ Abs.","amba5match5.aag","26.152","26.1548","Unrealizable"
"Simple BDD Solver w/ Abs. 2","amba5match5.aag","29.58","29.5819","Unrealizable"
"LazySynt","amba6c4unrealy.aag","2336.55","2336.87","Unrealizable"
"LazySynt (genDel)","amba6c4unrealy.aag","326.884","326.886","Unrealizable"
"Simple BDD Solver (2016)","amba6c4unrealy.aag","4.252","4.25379","Unrealizable"
"Simple BDD Solver w/ Abs.","amba6c4unrealy.aag","3.504","3.50794","Unrealizable"
"Simple BDD Solver w/ Abs. 2","amba6c4unrealy.aag","4.764","4.76663","Unrealizable"
"LazySynt","amba6f40y.aag","3600.05","3599.9","time limit exceeded"
"LazySynt (genDel)","amba6f40y.aag","3600.02","3600.2","time limit exceeded"
"Simple BDD Solver (2016)","amba6f40y.aag","7.324","7.32639","Realizable"
"Simple BDD Solver w/ Abs.","amba6f40y.aag","18.188","18.1912","Realizable"
"Simple BDD Solver w/ Abs. 2","amba6f40y.aag","23.816","23.8204","Realizable"
"LazySynt","amba6match5.aag","3600.02","3599.9","time limit exceeded"
"LazySynt (genDel)","amba6match5.aag","2305.38","2305.39","Unrealizable"
"Simple BDD Solver (2016)","amba6match5.aag","1576.78","1576.74","Unrealizable"
"Simple BDD Solver w/ Abs.","amba6match5.aag","35.584","35.589","Unrealizable"
"Simple BDD Solver w/ Abs. 2","amba6match5.aag","41.952","41.9543","Unrealizable"
"LazySynt","amba7b10n.aag","430.88","430.947","No output"
"LazySynt (genDel)","amba7b10n.aag","664.784","664.906","No output"
"Simple BDD Solver (2016)","amba7b10n.aag","6.076","6.07998","Realizable"
"Simple BDD Solver w/ Abs.","amba7b10n.aag","27.916","27.9195","Realizable"
"Simple BDD Solver w/ Abs. 2","amba7b10n.aag","28.832","28.8356","Realizable"
"LazySynt","amba7f24unrealn.aag","3600.02","3600.0","time limit exceeded"
"LazySynt (genDel)","amba7f24unrealn.aag","3600.02","3600.2","time limit exceeded"
"Simple BDD Solver (2016)","amba7f24unrealn.aag","7.544","7.54829","Unrealizable"
"Simple BDD Solver w/ Abs.","amba7f24unrealn.aag","34.928","34.9392","Unrealizable"
"Simple BDD Solver w/ Abs. 2","amba7f24unrealn.aag","101.468","101.471","Unrealizable"
"LazySynt","amba7match5.aag","3600.09","3600.31","time limit exceeded"
"LazySynt (genDel)","amba7match5.aag","3600.03","3600.0","time limit exceeded"
"Simple BDD Solver (2016)","amba7match5.aag","3600.01","3599.9","time limit exceeded"
"Simple BDD Solver w/ Abs.","amba7match5.aag","59.36","59.3592","Unrealizable"
"Simple BDD Solver w/ Abs. 2","amba7match5.aag","60.692","60.693","Unrealizable"
"LazySynt","amba8b8unrealy.aag","3600.02","3599.9","time limit exceeded"
"LazySynt (genDel)","amba8b8unrealy.aag","3600.06","3600.6","time limit exceeded"
"Simple BDD Solver (2016)","amba8b8unrealy.aag","35.208","35.214","Unrealizable"
"Simple BDD Solver w/ Abs.","amba8b8unrealy.aag","32.856","32.8572","Unrealizable"
"Simple BDD Solver w/ Abs. 2","amba8b8unrealy.aag","36.664","36.6676","Unrealizable"
"LazySynt","amba8c30n.aag","3600.03","3599.9","time limit exceeded"
"LazySynt (genDel)","amba8c30n.aag","3600.1","3600.4","time limit exceeded"
"Simple BDD Solver (2016)","amba8c30n.aag","24.764","24.7693","Realizable"
"Simple BDD Solver w/ Abs.","amba8c30n.aag","66.236","66.2374","Realizable"
"Simple BDD Solver w/ Abs. 2","amba8c30n.aag","113.172","113.19","Realizable"
"LazySynt","amba8match5.aag","3600.02","3599.9","time limit exceeded"
"LazySynt (genDel)","amba8match5.aag","3600.08","3600.6","time limit exceeded"
"Simple BDD Solver (2016)","amba8match5.aag","3600.02","3600.21","time limit exceeded"
"Simple BDD Solver w/ Abs.","amba8match5.aag","3600.02","3599.9","time limit exceeded"
"Simple BDD Solver w/ Abs. 2","amba8match5.aag","3600.02","3599.9","time limit exceeded"
"LazySynt","amba9b40y.aag","2589.04","2589.21","No output"
"LazySynt (genDel)","amba9b40y.aag","3600.05","3600.1","time limit exceeded"
"Simple BDD Solver (2016)","amba9b40y.aag","18.088","18.0917","Realizable"
"Simple BDD Solver w/ Abs.","amba9b40y.aag","79.932","79.9306","Realizable"
"Simple BDD Solver w/ Abs. 2","amba9b40y.aag","158.092","158.087","Realizable"
"LazySynt","amba9c4unrealy.aag","1639.66","1639.76","Unrealizable"
"LazySynt (genDel)","amba9c4unrealy.aag","400.296","400.315","Unrealizable"
"Simple BDD Solver (2016)","amba9c4unrealy.aag","12.016","12.0183","Unrealizable"
"Simple BDD Solver w/ Abs.","amba9c4unrealy.aag","14.172","14.1742","Unrealizable"
"Simple BDD Solver w/ Abs. 2","amba9c4unrealy.aag","16.176","16.1791","Unrealizable"
"LazySynt","atom_bakery_sym.aag","0.132","0.135465","Unrealizable"
"LazySynt (genDel)","atom_bakery_sym.aag","0.124","0.126724","Unrealizable"
"Simple BDD Solver (2016)","atom_bakery_sym.aag","0.08","0.084526","Unrealizable"
"Simple BDD Solver w/ Abs.","atom_bakery_sym.aag","0.044","0.049181","Unrealizable"
"Simple BDD Solver w/ Abs. 2","atom_bakery_sym.aag","0.04","0.041392","Unrealizable"
"LazySynt","bakery_nondet_sym.aag","0.052","0.055117","Unrealizable"
"LazySynt (genDel)","bakery_nondet_sym.aag","0.048","0.053975","Unrealizable"
"Simple BDD Solver (2016)","bakery_nondet_sym.aag","0.036","0.040251","Unrealizable"
"Simple BDD Solver w/ Abs.","bakery_nondet_sym.aag","0.048","0.049834","Unrealizable"
"Simple BDD Solver w/ Abs. 2","bakery_nondet_sym.aag","0.048","0.051987","Unrealizable"
"LazySynt","bakery_sym1.aag","0.052","0.05791","Unrealizable"
"LazySynt (genDel)","bakery_sym1.aag","0.048","0.052703","Unrealizable"
"Simple BDD Solver (2016)","bakery_sym1.aag","0.044","0.04642","Unrealizable"
"Simple BDD Solver w/ Abs.","bakery_sym1.aag","0.048","0.050196","Unrealizable"
"Simple BDD Solver w/ Abs. 2","bakery_sym1.aag","0.048","0.052096","Unrealizable"
"LazySynt","beemadd3b1_c0to3.aag","1302.37","1302.45","No output"
"LazySynt (genDel)","beemadd3b1_c0to3.aag","269.636","269.667","No output"
"Simple BDD Solver (2016)","beemadd3b1_c0to3.aag","5.732","5.73343","Realizable"
"Simple BDD Solver w/ Abs.","beemadd3b1_c0to3.aag","6.024","6.02654","Realizable"
"Simple BDD Solver w/ Abs. 2","beemadd3b1_c0to3.aag","6.008","6.00986","Realizable"
"LazySynt","beembrdg3f1_c0to3.aag","3600.11","3600.4","time limit exceeded"
"LazySynt (genDel)","beembrdg3f1_c0to3.aag","3600.01","3600.2","time limit exceeded"
"Simple BDD Solver (2016)","beembrdg3f1_c0to3.aag","21.708","21.7117","Realizable"
"Simple BDD Solver w/ Abs.","beembrdg3f1_c0to3.aag","2.1","2.10198","Realizable"
"Simple BDD Solver w/ Abs. 2","beembrdg3f1_c0to3.aag","2.096","2.09917","Realizable"
"LazySynt","beemextnc3b1_c0to3.aag","3600.03","3599.9","time limit exceeded"
"LazySynt (genDel)","beemextnc3b1_c0to3.aag","3600.1","3600.4","time limit exceeded"
"Simple BDD Solver (2016)","beemextnc3b1_c0to3.aag","3600.04","3599.91","time limit exceeded"
"Simple BDD Solver w/ Abs.","beemextnc3b1_c0to3.aag","3600.04","3599.9","time limit exceeded"
"Simple BDD Solver w/ Abs. 2","beemextnc3b1_c0to3.aag","3600.05","3599.9","time limit exceeded"
"LazySynt","beemgear1f1_c0to3.aag","3600.01","3600.2","time limit exceeded"
"LazySynt (genDel)","beemgear1f1_c0to3.aag","3600.06","3599.9","time limit exceeded"
"Simple BDD Solver (2016)","beemgear1f1_c0to3.aag","5.808","5.80939","Realizable"
"Simple BDD Solver w/ Abs.","beemgear1f1_c0to3.aag","4.132","4.13318","Realizable"
"Simple BDD Solver w/ Abs. 2","beemgear1f1_c0to3.aag","4.12","4.12142","Realizable"
"LazySynt","beemgear2f1_c0to3.aag","3600.02","3600.3","time limit exceeded"
"LazySynt (genDel)","beemgear2f1_c0to3.aag","3600.1","3600.6","time limit exceeded"
"Simple BDD Solver (2016)","beemgear2f1_c0to3.aag","5.12","5.12131","Realizable"
"Simple BDD Solver w/ Abs.","beemgear2f1_c0to3.aag","4.132","4.13423","Realizable"
"Simple BDD Solver w/ Abs. 2","beemgear2f1_c0to3.aag","4.104","4.10805","Realizable"
"LazySynt","beemkrebs3f1_c0to1.aag","3600.02","3600.2","time limit exceeded"
"LazySynt (genDel)","beemkrebs3f1_c0to1.aag","3600.02","3600.2","time limit exceeded"
"Simple BDD Solver (2016)","beemkrebs3f1_c0to1.aag","0.156","0.157684","Realizable"
"Simple BDD Solver w/ Abs.","beemkrebs3f1_c0to1.aag","0.044","0.045723","Realizable"
"Simple BDD Solver w/ Abs. 2","beemkrebs3f1_c0to1.aag","0.044","0.045421","Realizable"
"LazySynt","beemloyd2b1_c0to7.aag","2717.14","2717.11","No output"
"LazySynt (genDel)","beemloyd2b1_c0to7.aag","470.84","470.853","No output"
"Simple BDD Solver (2016)","beemloyd2b1_c0to7.aag","60.268","60.2724","Realizable"
"Simple BDD Solver w/ Abs.","beemloyd2b1_c0to7.aag","38.804","38.8099","Realizable"
"Simple BDD Solver w/ Abs. 2","beemloyd2b1_c0to7.aag","35.548","35.5544","Realizable"
"LazySynt","beempgsol5b1_c0to1.aag","3600.0","3600.21","time limit exceeded"
"LazySynt (genDel)","beempgsol5b1_c0to1.aag","3600.03","3599.9","time limit exceeded"
"Simple BDD Solver (2016)","beempgsol5b1_c0to1.aag","3600.1","3600.31","time limit exceeded"
"Simple BDD Solver w/ Abs.","beempgsol5b1_c0to1.aag","3600.03","3600.2","time limit exceeded"
"Simple BDD Solver w/ Abs. 2","beempgsol5b1_c0to1.aag","3600.03","3600.2","time limit exceeded"
"LazySynt","beemptrsn7b1_c0to3.aag","3600.08","3600.4","time limit exceeded"
"LazySynt (genDel)","beemptrsn7b1_c0to3.aag","3600.08","3600.3","time limit exceeded"
"Simple BDD Solver (2016)","beemptrsn7b1_c0to3.aag","3600.04","3599.9","time limit exceeded"
"Simple BDD Solver w/ Abs.","beemptrsn7b1_c0to3.aag","3600.01","3599.91","time limit exceeded"
"Simple BDD Solver w/ Abs. 2","beemptrsn7b1_c0to3.aag","3600.0","3599.91","time limit exceeded"
"LazySynt","beemrshr2b1_c0to7.aag","3600.02","3600.2","time limit exceeded"
"LazySynt (genDel)","beemrshr2b1_c0to7.aag","3600.01","3600.0","time limit exceeded"
"Simple BDD Solver (2016)","beemrshr2b1_c0to7.aag","3600.04","3599.9","time limit exceeded"
"Simple BDD Solver w/ Abs.","beemrshr2b1_c0to7.aag","3600.06","3600.2","time limit exceeded"
"Simple BDD Solver w/ Abs. 2","beemrshr2b1_c0to7.aag","3600.06","3599.9","time limit exceeded"
"LazySynt","beemskbn2f1_c0to1.aag","3600.02","3600.2","time limit exceeded"
"LazySynt (genDel)","beemskbn2f1_c0to1.aag","3600.07","3599.9","time limit exceeded"
"Simple BDD Solver (2016)","beemskbn2f1_c0to1.aag","3600.02","3599.9","time limit exceeded"
"Simple BDD Solver w/ Abs.","beemskbn2f1_c0to1.aag","11.376","11.381","Realizable"
"Simple BDD Solver w/ Abs. 2","beemskbn2f1_c0to1.aag","11.06","11.066","Realizable"
"LazySynt","bob12s01_c0to7.aag","3600.06","3600.0","time limit exceeded"
"LazySynt (genDel)","bob12s01_c0to7.aag","3600.06","3600.2","time limit exceeded"
"Simple BDD Solver (2016)","bob12s01_c0to7.aag","3600.09","3600.01","time limit exceeded"
"Simple BDD Solver w/ Abs.","bob12s01_c0to7.aag","3600.08","3599.9","time limit exceeded"
"Simple BDD Solver w/ Abs. 2","bob12s01_c0to7.aag","3600.07","3600.21","time limit exceeded"
"LazySynt","bs1024n.aag","6.644","6.65401","No output"
"LazySynt (genDel)","bs1024n.aag","6.6","6.60993","No output"
"Simple BDD Solver (2016)","bs1024n.aag","12.796","12.7999","Realizable"
"Simple BDD Solver w/ Abs.","bs1024n.aag","1.412","1.41618","Realizable"
"Simple BDD Solver w/ Abs. 2","bs1024n.aag","1.468","1.46982","Realizable"
"LazySynt","bs128n.aag","0.16","0.169777","No output"
"LazySynt (genDel)","bs128n.aag","0.16","0.170902","No output"
"Simple BDD Solver (2016)","bs128n.aag","0.076","0.077493","Realizable"
"Simple BDD Solver w/ Abs.","bs128n.aag","0.008","0.010189","Realizable"
"Simple BDD Solver w/ Abs. 2","bs128n.aag","0.008","0.010081","Realizable"
"LazySynt","bs2048y.aag","31.076","31.0957","No output"
"LazySynt (genDel)","bs2048y.aag","31.192","31.2049","No output"
"Simple BDD Solver (2016)","bs2048y.aag","55.516","55.5197","Realizable"
"Simple BDD Solver w/ Abs.","bs2048y.aag","4.316","4.32076","Realizable"
"Simple BDD Solver w/ Abs. 2","bs2048y.aag","4.376","4.37786","Realizable"
"LazySynt","bs256y.aag","0.452","0.46205","No output"
"LazySynt (genDel)","bs256y.aag","0.452","0.461608","No output"
"Simple BDD Solver (2016)","bs256y.aag","0.344","0.349151","Realizable"
"Simple BDD Solver w/ Abs.","bs256y.aag","0.112","0.116644","Realizable"
"Simple BDD Solver w/ Abs. 2","bs256y.aag","0.12","0.123321","Realizable"
"LazySynt","bs512y.aag","1.484","1.49622","No output"
"LazySynt (genDel)","bs512y.aag","1.488","1.49695","No output"
"Simple BDD Solver (2016)","bs512y.aag","1.904","1.90945","Realizable"
"Simple BDD Solver w/ Abs.","bs512y.aag","0.504","0.508463","Realizable"
"Simple BDD Solver w/ Abs. 2","bs512y.aag","0.464","0.468617","Realizable"
"LazySynt","cnt11n.aag","1.544","1.55187","No output"
"LazySynt (genDel)","cnt11n.aag","1.588","1.60165","No output"
"Simple BDD Solver (2016)","cnt11n.aag","0.008","0.009735","Realizable"
"Simple BDD Solver w/ Abs.","cnt11n.aag","0.008","0.011513","Realizable"
"Simple BDD Solver w/ Abs. 2","cnt11n.aag","0.008","0.010888","Realizable"
"LazySynt","cnt15y.aag","626.92","626.909","No output"
"LazySynt (genDel)","cnt15y.aag","633.148","633.13","No output"
"Simple BDD Solver (2016)","cnt15y.aag","0.092","0.093911","Realizable"
"Simple BDD Solver w/ Abs.","cnt15y.aag","0.132","0.134748","Realizable"
"Simple BDD Solver w/ Abs. 2","cnt15y.aag","0.136","0.137752","Realizable"
"LazySynt","cnt20y.aag","3600.04","3600.01","time limit exceeded"
"LazySynt (genDel)","cnt20y.aag","3600.04","3600.21","time limit exceeded"
"Simple BDD Solver (2016)","cnt20y.aag","3.564","3.56726","Realizable"
"Simple BDD Solver w/ Abs.","cnt20y.aag","5.216","5.22112","Realizable"
"Simple BDD Solver w/ Abs. 2","cnt20y.aag","5.108","5.11096","Realizable"
"LazySynt","cnt25n.aag","3600.08","3599.91","time limit exceeded"
"LazySynt (genDel)","cnt25n.aag","3600.05","3600.11","time limit exceeded"
"Simple BDD Solver (2016)","cnt25n.aag","139.48","139.477","Realizable"
"Simple BDD Solver w/ Abs.","cnt25n.aag","197.232","197.223","Realizable"
"Simple BDD Solver w/ Abs. 2","cnt25n.aag","212.692","212.702","Realizable"
"LazySynt","cnt30n.aag","3600.04","3600.21","time limit exceeded"
"LazySynt (genDel)","cnt30n.aag","3600.08","3599.91","time limit exceeded"
"Simple BDD Solver (2016)","cnt30n.aag","3600.1","3599.9","time limit exceeded"
"Simple BDD Solver w/ Abs.","cnt30n.aag","3600.08","3600.2","time limit exceeded"
"Simple BDD Solver w/ Abs. 2","cnt30n.aag","3600.08","3599.9","time limit exceeded"
"LazySynt","cycle_sched_12_3_3.aag","3600.02","3600.3","time limit exceeded"
"LazySynt (genDel)","cycle_sched_12_3_3.aag","3600.04","3600.5","time limit exceeded"
"Simple BDD Solver (2016)","cycle_sched_12_3_3.aag","172.984","172.991","Realizable"
"Simple BDD Solver w/ Abs.","cycle_sched_12_3_3.aag","43.856","43.8554","Realizable"
"Simple BDD Solver w/ Abs. 2","cycle_sched_12_3_3.aag","59.628","59.6334","Realizable"
"LazySynt","cycle_sched_12_7_2.aag","3600.07","3599.9","time limit exceeded"
"LazySynt (genDel)","cycle_sched_12_7_2.aag","3600.03","3600.3","time limit exceeded"
"Simple BDD Solver (2016)","cycle_sched_12_7_2.aag","3600.05","3600.2","time limit exceeded"
"Simple BDD Solver w/ Abs.","cycle_sched_12_7_2.aag","3600.07","3599.9","time limit exceeded"
"Simple BDD Solver w/ Abs. 2","cycle_sched_12_7_2.aag","3600.07","3599.9","time limit exceeded"
"LazySynt","cycle_sched_16_3_4.aag","3600.03","3600.2","time limit exceeded"
"LazySynt (genDel)","cycle_sched_16_3_4.aag","3600.06","3600.2","time limit exceeded"
"Simple BDD Solver (2016)","cycle_sched_16_3_4.aag","953.916","953.9","Maybe realizable"
"Simple BDD Solver w/ Abs.","cycle_sched_16_3_4.aag","115.924","115.923","Maybe realizable"
"Simple BDD Solver w/ Abs. 2","cycle_sched_16_3_4.aag","368.292","368.296","Maybe realizable"
"LazySynt","cycle_sched_16_7_1.aag","3600.05","3600.0","time limit exceeded"
"LazySynt (genDel)","cycle_sched_16_7_1.aag","25.712","25.7198","No output"
"Simple BDD Solver (2016)","cycle_sched_16_7_1.aag","9.688","9.69028","Realizable"
"Simple BDD Solver w/ Abs.","cycle_sched_16_7_1.aag","18.884","18.8862","Realizable"
"Simple BDD Solver w/ Abs. 2","cycle_sched_16_7_1.aag","26.78","26.7837","Realizable"
"LazySynt","cycle_sched_2_3_1.aag","3600.01","3600.5","time limit exceeded"
"LazySynt (genDel)","cycle_sched_2_3_1.aag","1.012","1.02206","No output"
"Simple BDD Solver (2016)","cycle_sched_2_3_1.aag","0.02","0.024208","Realizable"
"Simple BDD Solver w/ Abs.","cycle_sched_2_3_1.aag","0.016","0.017733","Realizable"
"Simple BDD Solver w/ Abs. 2","cycle_sched_2_3_1.aag","0.024","0.025507","Realizable"
"LazySynt","cycle_sched_2_6_1.aag","3600.02","3599.9","time limit exceeded"
"LazySynt (genDel)","cycle_sched_2_6_1.aag","3600.04","3600.0","time limit exceeded"
"Simple BDD Solver (2016)","cycle_sched_2_6_1.aag","0.152","0.153741","Realizable"
"Simple BDD Solver w/ Abs.","cycle_sched_2_6_1.aag","0.388","0.392328","Realizable"
"Simple BDD Solver w/ Abs. 2","cycle_sched_2_6_1.aag","0.324","0.327694","Realizable"
"LazySynt","cycle_sched_20_2_4.aag","3600.04","3600.2","time limit exceeded"
"LazySynt (genDel)","cycle_sched_20_2_4.aag","3600.02","3600.2","time limit exceeded"
"Simple BDD Solver (2016)","cycle_sched_20_2_4.aag","98.652","98.6617","Realizable"
"Simple BDD Solver w/ Abs.","cycle_sched_20_2_4.aag","280.496","280.487","Realizable"
"Simple BDD Solver w/ Abs. 2","cycle_sched_20_2_4.aag","347.54","347.554","Realizable"
"LazySynt","cycle_sched_24_2_4.aag","3600.06","3600.0","time limit exceeded"
"LazySynt (genDel)","cycle_sched_24_2_4.aag","3600.06","3600.31","time limit exceeded"
"Simple BDD Solver (2016)","cycle_sched_24_2_4.aag","152.912","152.907","Realizable"
"Simple BDD Solver w/ Abs.","cycle_sched_24_2_4.aag","639.04","639.023","Realizable"
"Simple BDD Solver w/ Abs. 2","cycle_sched_24_2_4.aag","2799.62","2799.49","Realizable"
"LazySynt","cycle_sched_28_8_4.aag","3600.01","3599.9","time limit exceeded"
"LazySynt (genDel)","cycle_sched_28_8_4.aag","3600.1","3600.1","time limit exceeded"
"Simple BDD Solver (2016)","cycle_sched_28_8_4.aag","3600.06","3599.9","time limit exceeded"
"Simple BDD Solver w/ Abs.","cycle_sched_28_8_4.aag","3600.06","3599.9","time limit exceeded"
"Simple BDD Solver w/ Abs. 2","cycle_sched_28_8_4.aag","3600.07","3599.9","time limit exceeded"
"LazySynt","cycle_sched_4_4_1.aag","3600.09","3600.6","time limit exceeded"
"LazySynt (genDel)","cycle_sched_4_4_1.aag","3600.04","3600.2","time limit exceeded"
"Simple BDD Solver (2016)","cycle_sched_4_4_1.aag","1.128","1.1314","Realizable"
"Simple BDD Solver w/ Abs.","cycle_sched_4_4_1.aag","1.132","1.1339","Realizable"
"Simple BDD Solver w/ Abs. 2","cycle_sched_4_4_1.aag","1.38","1.38455","Realizable"
"LazySynt","cycle_sched_4_7_1.aag","3600.1","3600.1","time limit exceeded"
"LazySynt (genDel)","cycle_sched_4_7_1.aag","3600.1","3600.3","time limit exceeded"
"Simple BDD Solver (2016)","cycle_sched_4_7_1.aag","3.112","3.11722","Realizable"
"Simple BDD Solver w/ Abs.","cycle_sched_4_7_1.aag","6.984","6.98827","Realizable"
"Simple BDD Solver w/ Abs. 2","cycle_sched_4_7_1.aag","15.68","15.6825","Realizable"
"LazySynt","cycle_sched_4_8_2.aag","3600.05","3599.9","time limit exceeded"
"LazySynt (genDel)","cycle_sched_4_8_2.aag","3600.01","3600.3","time limit exceeded"
"Simple BDD Solver (2016)","cycle_sched_4_8_2.aag","2.816","2.82045","Realizable"
"Simple BDD Solver w/ Abs.","cycle_sched_4_8_2.aag","6.316","6.31929","Realizable"
"Simple BDD Solver w/ Abs. 2","cycle_sched_4_8_2.aag","17.484","17.485","Realizable"
"LazySynt","cycle_sched_6_5_2.aag","3600.1","3600.3","time limit exceeded"
"LazySynt (genDel)","cycle_sched_6_5_2.aag","3600.05","3600.2","time limit exceeded"
"Simple BDD Solver (2016)","cycle_sched_6_5_2.aag","7.908","7.91231","Realizable"
"Simple BDD Solver w/ Abs.","cycle_sched_6_5_2.aag","0.028","0.113646","No output"
"Simple BDD Solver w/ Abs. 2","cycle_sched_6_5_2.aag","0.024","0.112995","No output"
"LazySynt","cycle_sched_6_7_1.aag","3600.04","3600.0","time limit exceeded"
"LazySynt (genDel)","cycle_sched_6_7_1.aag","3600.0","3600.21","time limit exceeded"
"Simple BDD Solver (2016)","cycle_sched_6_7_1.aag","9.532","9.5346","Realizable"
"Simple BDD Solver w/ Abs.","cycle_sched_6_7_1.aag","51.948","51.9499","Realizable"
"Simple BDD Solver w/ Abs. 2","cycle_sched_6_7_1.aag","201.284","201.281","Realizable"
"LazySynt","cycle_sched_8_2_4.aag","3600.06","3599.9","time limit exceeded"
"LazySynt (genDel)","cycle_sched_8_2_4.aag","180.764","180.774","No output"
"Simple BDD Solver (2016)","cycle_sched_8_2_4.aag","0.852","0.855333","Realizable"
"Simple BDD Solver w/ Abs.","cycle_sched_8_2_4.aag","0.912","0.914184","Realizable"
"Simple BDD Solver w/ Abs. 2","cycle_sched_8_2_4.aag","1.12","1.12467","Realizable"
"LazySynt","cycle_sched_8_5_1.aag","3600.07","3600.0","time limit exceeded"
"LazySynt (genDel)","cycle_sched_8_5_1.aag","3600.03","3600.2","time limit exceeded"
"Simple BDD Solver (2016)","cycle_sched_8_5_1.aag","11.06","11.0624","Realizable"
"Simple BDD Solver w/ Abs.","cycle_sched_8_5_1.aag","88.784","88.783","Realizable"
"Simple BDD Solver w/ Abs. 2","cycle_sched_8_5_1.aag","49.04","49.0411","Realizable"
"LazySynt","demo-v1_5_UNREAL.aag","0.028","0.032704","Unrealizable"
"LazySynt (genDel)","demo-v1_5_UNREAL.aag","0.028","0.033142","Unrealizable"
"Simple BDD Solver (2016)","demo-v1_5_UNREAL.aag","0.004","0.005583","Unrealizable"
"Simple BDD Solver w/ Abs.","demo-v1_5_UNREAL.aag","0.008","0.012768","Unrealizable"
"Simple BDD Solver w/ Abs. 2","demo-v1_5_UNREAL.aag","0.012","0.014027","Unrealizable"
"LazySynt","demo-v10_5_REAL.aag","0.168","0.179282","No output"
"LazySynt (genDel)","demo-v10_5_REAL.aag","0.168","0.177557","No output"
"Simple BDD Solver (2016)","demo-v10_5_REAL.aag","0.04","0.042767","Realizable"
"Simple BDD Solver w/ Abs.","demo-v10_5_REAL.aag","0.004","0.006441","Realizable"
"Simple BDD Solver w/ Abs. 2","demo-v10_5_REAL.aag","0.004","0.006484","Realizable"
"LazySynt","demo-v11_2_UNREAL.aag","0.024","0.027912","Unrealizable"
"LazySynt (genDel)","demo-v11_2_UNREAL.aag","0.024","0.027718","Unrealizable"
"Simple BDD Solver (2016)","demo-v11_2_UNREAL.aag","0.004","0.005654","Unrealizable"
"Simple BDD Solver w/ Abs.","demo-v11_2_UNREAL.aag","0.004","0.005311","Unrealizable"
"Simple BDD Solver w/ Abs. 2","demo-v11_2_UNREAL.aag","0.004","0.005861","Unrealizable"
"LazySynt","demo-v11_5_UNREAL.aag","0.028","0.030222","Unrealizable"
"LazySynt (genDel)","demo-v11_5_UNREAL.aag","0.028","0.030716","Unrealizable"
"Simple BDD Solver (2016)","demo-v11_5_UNREAL.aag","0.004","0.006006","Unrealizable"
"Simple BDD Solver w/ Abs.","demo-v11_5_UNREAL.aag","0.004","0.006158","Unrealizable"
"Simple BDD Solver w/ Abs. 2","demo-v11_5_UNREAL.aag","0.004","0.006345","Unrealizable"
"LazySynt","demo-v13_5_REAL.aag","0.076","0.08667","No output"
"LazySynt (genDel)","demo-v13_5_REAL.aag","0.076","0.087226","No output"
"Simple BDD Solver (2016)","demo-v13_5_REAL.aag","0.004","0.007448","Realizable"
"Simple BDD Solver w/ Abs.","demo-v13_5_REAL.aag","0.0","0.005137","Realizable"
"Simple BDD Solver w/ Abs. 2","demo-v13_5_REAL.aag","0.0","0.005133","Realizable"
"LazySynt","demo-v15_5_REAL.aag","0.112","0.120802","No output"
"LazySynt (genDel)","demo-v15_5_REAL.aag","0.12","0.127043","No output"
"Simple BDD Solver (2016)","demo-v15_5_REAL.aag","0.02","0.025366","Realizable"
"Simple BDD Solver w/ Abs.","demo-v15_5_REAL.aag","0.084","0.087896","Realizable"
"Simple BDD Solver w/ Abs. 2","demo-v15_5_REAL.aag","0.088","0.091965","Realizable"
"LazySynt","demo-v18_2_UNREAL.aag","3518.42","3518.57","Unrealizable"
"LazySynt (genDel)","demo-v18_2_UNREAL.aag","218.404","218.405","Unrealizable"
"Simple BDD Solver (2016)","demo-v18_2_UNREAL.aag","1.068","1.07202","Unrealizable"
"Simple BDD Solver w/ Abs.","demo-v18_2_UNREAL.aag","5.62","5.62392","Unrealizable"
"Simple BDD Solver w/ Abs. 2","demo-v18_2_UNREAL.aag","6.532","6.53607","Unrealizable"
"LazySynt","demo-v18_5_REAL.aag","3600.06","3600.0","time limit exceeded"
"LazySynt (genDel)","demo-v18_5_REAL.aag","375.004","375.022","No output"
"Simple BDD Solver (2016)","demo-v18_5_REAL.aag","1117.0","1116.97","Realizable"
"Simple BDD Solver w/ Abs.","demo-v18_5_REAL.aag","182.68","182.674","Realizable"
"Simple BDD Solver w/ Abs. 2","demo-v18_5_REAL.aag","84.96","84.9594","Realizable"
"LazySynt","demo-v2_5_UNREAL.aag","0.028","0.032233","Unrealizable"
"LazySynt (genDel)","demo-v2_5_UNREAL.aag","0.028","0.034009","Unrealizable"
"Simple BDD Solver (2016)","demo-v2_5_UNREAL.aag","0.004","0.005576","Unrealizable"
"Simple BDD Solver w/ Abs.","demo-v2_5_UNREAL.aag","0.008","0.01112","Unrealizable"
"Simple BDD Solver w/ Abs. 2","demo-v2_5_UNREAL.aag","0.008","0.011463","Unrealizable"
"LazySynt","demo-v22_5_REAL.aag","2.772","2.78137","No output"
"LazySynt (genDel)","demo-v22_5_REAL.aag","2.828","2.83634","No output"
"Simple BDD Solver (2016)","demo-v22_5_REAL.aag","0.864","0.866877","Realizable"
"Simple BDD Solver w/ Abs.","demo-v22_5_REAL.aag","0.28","0.283409","Realizable"
"Simple BDD Solver w/ Abs. 2","demo-v22_5_REAL.aag","0.3","0.304998","Realizable"
"LazySynt","demo-v24_5_REAL.aag","11.856","11.8641","No output"
"LazySynt (genDel)","demo-v24_5_REAL.aag","3.768","3.77403","No output"
"Simple BDD Solver (2016)","demo-v24_5_REAL.aag","1.88","1.8815","Realizable"
"Simple BDD Solver w/ Abs.","demo-v24_5_REAL.aag","2.488","2.49292","Realizable"
"Simple BDD Solver w/ Abs. 2","demo-v24_5_REAL.aag","0.156","0.158709","Realizable"
"LazySynt","demo-v25_2_UNREAL.aag","2.412","2.41433","Unrealizable"
"LazySynt (genDel)","demo-v25_2_UNREAL.aag","0.772","0.777257","Unrealizable"
"Simple BDD Solver (2016)","demo-v25_2_UNREAL.aag","0.516","0.519344","Unrealizable"
"Simple BDD Solver w/ Abs.","demo-v25_2_UNREAL.aag","1.236","1.23846","Unrealizable"
"Simple BDD Solver w/ Abs. 2","demo-v25_2_UNREAL.aag","1.36","1.3645","Unrealizable"
"LazySynt","demo-v25_5_UNREAL.aag","108.484","108.492","Unrealizable"
"LazySynt (genDel)","demo-v25_5_UNREAL.aag","7.984","7.98836","Unrealizable"
"Simple BDD Solver (2016)","demo-v25_5_UNREAL.aag","2.104","2.10785","Unrealizable"
"Simple BDD Solver w/ Abs.","demo-v25_5_UNREAL.aag","6.788","6.78931","Unrealizable"
"Simple BDD Solver w/ Abs. 2","demo-v25_5_UNREAL.aag","9.624","9.62561","Unrealizable"
"LazySynt","demo-v3_5_REAL.aag","0.136","0.147369","No output"
"LazySynt (genDel)","demo-v3_5_REAL.aag","0.148","0.15838","No output"
"Simple BDD Solver (2016)","demo-v3_5_REAL.aag","0.004","0.008114","Realizable"
"Simple BDD Solver w/ Abs.","demo-v3_5_REAL.aag","0.016","0.019277","Realizable"
"Simple BDD Solver w/ Abs. 2","demo-v3_5_REAL.aag","0.016","0.021023","Realizable"
"LazySynt","demo-v6_2_UNREAL.aag","0.08","0.082648","Unrealizable"
"LazySynt (genDel)","demo-v6_2_UNREAL.aag","0.108","0.110902","Unrealizable"
"Simple BDD Solver (2016)","demo-v6_2_UNREAL.aag","0.04","0.044542","Unrealizable"
"Simple BDD Solver w/ Abs.","demo-v6_2_UNREAL.aag","0.104","0.10764","Unrealizable"
"Simple BDD Solver w/ Abs. 2","demo-v6_2_UNREAL.aag","0.156","0.159029","Unrealizable"
"LazySynt","demo-v6_5_REAL.aag","0.98","0.987758","No output"
"LazySynt (genDel)","demo-v6_5_REAL.aag","0.836","0.844524","No output"
"Simple BDD Solver (2016)","demo-v6_5_REAL.aag","0.376","0.378972","Realizable"
"Simple BDD Solver w/ Abs.","demo-v6_5_REAL.aag","0.192","0.193549","Realizable"
"Simple BDD Solver w/ Abs. 2","demo-v6_5_REAL.aag","0.216","0.219807","Realizable"
"LazySynt","driver_a4n.aag","207.584","207.6","Unrealizable"
"LazySynt (genDel)","driver_a4n.aag","232.444","232.461","Unrealizable"
"Simple BDD Solver (2016)","driver_a4n.aag","22.9","22.9029","Unrealizable"
"Simple BDD Solver w/ Abs.","driver_a4n.aag","0.376","0.380223","Unrealizable"
"Simple BDD Solver w/ Abs. 2","driver_a4n.aag","0.376","0.379952","Unrealizable"
"LazySynt","driver_a6n.aag","3600.08","3600.31","time limit exceeded"
"LazySynt (genDel)","driver_a6n.aag","3600.02","3599.9","time limit exceeded"
"Simple BDD Solver (2016)","driver_a6n.aag","3600.04","3599.9","time limit exceeded"
"Simple BDD Solver w/ Abs.","driver_a6n.aag","0.552","0.553443","Maybe unrealizable"
"Simple BDD Solver w/ Abs. 2","driver_a6n.aag","0.556","0.558029","Maybe unrealizable"
"LazySynt","driver_a7n.aag","3600.02","3600.0","time limit exceeded"
"LazySynt (genDel)","driver_a7n.aag","3600.09","3600.31","time limit exceeded"
"Simple BDD Solver (2016)","driver_a7n.aag","3600.02","3599.9","time limit exceeded"
"Simple BDD Solver w/ Abs.","driver_a7n.aag","0.712","0.716104","Unrealizable"
"Simple BDD Solver w/ Abs. 2","driver_a7n.aag","0.724","0.725379","Unrealizable"
"LazySynt","driver_a9y.aag","3600.03","3599.91","time limit exceeded"
"LazySynt (genDel)","driver_a9y.aag","3600.03","3600.0","time limit exceeded"
"Simple BDD Solver (2016)","driver_a9y.aag","3600.04","3599.9","time limit exceeded"
"Simple BDD Solver w/ Abs.","driver_a9y.aag","3600.05","3599.91","time limit exceeded"
"Simple BDD Solver w/ Abs. 2","driver_a9y.aag","1.036","1.04058","Realizable"
"LazySynt","driver_b10y.aag","3600.08","3600.6","time limit exceeded"
"LazySynt (genDel)","driver_b10y.aag","3600.09","3600.01","time limit exceeded"
"Simple BDD Solver (2016)","driver_b10y.aag","3600.02","3599.9","time limit exceeded"
"Simple BDD Solver w/ Abs.","driver_b10y.aag","3600.02","3599.9","time limit exceeded"
"Simple BDD Solver w/ Abs. 2","driver_b10y.aag","1.36","1.36402","Realizable"
"LazySynt","driver_b4n.aag","2105.11","2105.27","Unrealizable"
"LazySynt (genDel)","driver_b4n.aag","789.968","789.968","Unrealizable"
"Simple BDD Solver (2016)","driver_b4n.aag","14.624","14.6296","Unrealizable"
"Simple BDD Solver w/ Abs.","driver_b4n.aag","0.36","0.361642","Unrealizable"
"Simple BDD Solver w/ Abs. 2","driver_b4n.aag","0.36","0.362014","Unrealizable"
"LazySynt","driver_b5y.aag","3600.07","3600.0","time limit exceeded"
"LazySynt (genDel)","driver_b5y.aag","3600.04","3600.31","time limit exceeded"
"Simple BDD Solver (2016)","driver_b5y.aag","3199.19","3199.09","Unrealizable"
"Simple BDD Solver w/ Abs.","driver_b5y.aag","0.584","0.586371","Unrealizable"
"Simple BDD Solver w/ Abs. 2","driver_b5y.aag","0.22","0.221978","Unrealizable"
"LazySynt","driver_b8y.aag","3600.07","3600.0","time limit exceeded"
"LazySynt (genDel)","driver_b8y.aag","3600.07","3600.4","time limit exceeded"
"Simple BDD Solver (2016)","driver_b8y.aag","3600.1","3600.3","time limit exceeded"
"Simple BDD Solver w/ Abs.","driver_b8y.aag","3600.02","3599.9","time limit exceeded"
"Simple BDD Solver w/ Abs. 2","driver_b8y.aag","1.328","1.33293","Realizable"
"LazySynt","driver_c10n.aag","3600.11","3600.4","time limit exceeded"
"LazySynt (genDel)","driver_c10n.aag","3600.03","3600.0","time limit exceeded"
"Simple BDD Solver (2016)","driver_c10n.aag","702.628","702.614","Realizable"
"Simple BDD Solver w/ Abs.","driver_c10n.aag","426.62","426.624","Realizable"
"Simple BDD Solver w/ Abs. 2","driver_c10n.aag","0.096","0.098461","Realizable"
"LazySynt","driver_c6y.aag","3600.02","3600.1","time limit exceeded"
"LazySynt (genDel)","driver_c6y.aag","3600.1","3600.41","time limit exceeded"
"Simple BDD Solver (2016)","driver_c6y.aag","20.772","20.7757","Unrealizable"
"Simple BDD Solver w/ Abs.","driver_c6y.aag","0.06","0.065304","Unrealizable"
"Simple BDD Solver w/ Abs. 2","driver_c6y.aag","0.064","0.067513","Unrealizable"
"LazySynt","driver_c7n.aag","3600.07","3600.01","time limit exceeded"
"LazySynt (genDel)","driver_c7n.aag","3600.02","3600.4","time limit exceeded"
"Simple BDD Solver (2016)","driver_c7n.aag","608.888","608.888","Unrealizable"
"Simple BDD Solver w/ Abs.","driver_c7n.aag","0.08","0.083537","Unrealizable"
"Simple BDD Solver w/ Abs. 2","driver_c7n.aag","0.084","0.087182","Unrealizable"
"LazySynt","driver_c8n.aag","3600.1","3600.4","time limit exceeded"
"LazySynt (genDel)","driver_c8n.aag","3600.02","3600.0","time limit exceeded"
"Simple BDD Solver (2016)","driver_c8n.aag","2325.72","2325.67","Realizable"
"Simple BDD Solver w/ Abs.","driver_c8n.aag","291.924","291.939","Realizable"
"Simple BDD Solver w/ Abs. 2","driver_c8n.aag","0.152","0.157313","Realizable"
"LazySynt","driver_d4y.aag","0.248","0.252792","Unrealizable"
"LazySynt (genDel)","driver_d4y.aag","0.172","0.177453","Unrealizable"
"Simple BDD Solver (2016)","driver_d4y.aag","0.132","0.137171","Unrealizable"
"Simple BDD Solver w/ Abs.","driver_d4y.aag","0.004","0.006886","Unrealizable"
"Simple BDD Solver w/ Abs. 2","driver_d4y.aag","0.004","0.006621","Unrealizable"
"LazySynt","driver_d7n.aag","153.968","153.983","Unrealizable"
"LazySynt (genDel)","driver_d7n.aag","3600.05","3600.1","time limit exceeded"
"Simple BDD Solver (2016)","driver_d7n.aag","12.956","12.9598","Unrealizable"
"Simple BDD Solver w/ Abs.","driver_d7n.aag","0.028","0.031695","Unrealizable"
"Simple BDD Solver w/ Abs. 2","driver_d7n.aag","0.032","0.034661","Unrealizable"
"LazySynt","driver_d8y.aag","725.412","725.52","No output"
"LazySynt (genDel)","driver_d8y.aag","1466.15","1466.3","No output"
"Simple BDD Solver (2016)","driver_d8y.aag","71.928","71.9268","Realizable"
"Simple BDD Solver w/ Abs.","driver_d8y.aag","23.108","23.1159","Realizable"
"Simple BDD Solver w/ Abs. 2","driver_d8y.aag","0.056","0.06052","Realizable"
"LazySynt","driver_d9y.aag","1216.65","1216.76","No output"
"LazySynt (genDel)","driver_d9y.aag","3600.11","3600.4","time limit exceeded"
"Simple BDD Solver (2016)","driver_d9y.aag","323.436","323.427","Realizable"
"Simple BDD Solver w/ Abs.","driver_d9y.aag","42.36","42.3666","Realizable"
"Simple BDD Solver w/ Abs. 2","driver_d9y.aag","0.056","0.059845","Realizable"
"LazySynt","factory_assembly_3x3_1_1errors.aag","0.088","0.092789","Unrealizable"
"LazySynt (genDel)","factory_assembly_3x3_1_1errors.aag","0.1","0.105374","Unrealizable"
"Simple BDD Solver (2016)","factory_assembly_3x3_1_1errors.aag","0.024","0.028454","Unrealizable"
"Simple BDD Solver w/ Abs.","factory_assembly_3x3_1_1errors.aag","0.02","0.021812","Unrealizable"
"Simple BDD Solver w/ Abs. 2","factory_assembly_3x3_1_1errors.aag","0.02","0.022945","Unrealizable"
"LazySynt","factory_assembly_4x3_1_1errors.aag","0.8","0.80749","No output"
"LazySynt (genDel)","factory_assembly_4x3_1_1errors.aag","0.692","0.69933","No output"
"Simple BDD Solver (2016)","factory_assembly_4x3_1_1errors.aag","0.104","0.107081","Realizable"
"Simple BDD Solver w/ Abs.","factory_assembly_4x3_1_1errors.aag","0.192","0.196067","Realizable"
"Simple BDD Solver w/ Abs. 2","factory_assembly_4x3_1_1errors.aag","0.216","0.21833","Realizable"
"LazySynt","factory_assembly_5x3_1_0errors.aag","1.436","1.44579","No output"
"LazySynt (genDel)","factory_assembly_5x3_1_0errors.aag","2.676","2.68556","No output"
"Simple BDD Solver (2016)","factory_assembly_5x3_1_0errors.aag","0.516","0.518732","Realizable"
"Simple BDD Solver w/ Abs.","factory_assembly_5x3_1_0errors.aag","0.324","0.32743","Realizable"
"Simple BDD Solver w/ Abs. 2","factory_assembly_5x3_1_0errors.aag","0.396","0.400969","Realizable"
"LazySynt","factory_assembly_5x3_1_4errors.aag","6.168","6.17723","No output"
"LazySynt (genDel)","factory_assembly_5x3_1_4errors.aag","7.784","7.79368","No output"
"Simple BDD Solver (2016)","factory_assembly_5x3_1_4errors.aag","1.128","1.13254","Realizable"
"Simple BDD Solver w/ Abs.","factory_assembly_5x3_1_4errors.aag","0.732","0.735179","Realizable"
"Simple BDD Solver w/ Abs. 2","factory_assembly_5x3_1_4errors.aag","0.828","0.833351","Realizable"
"LazySynt","factory_assembly_5x3_1_5errors.aag","20.312","20.3186","Unrealizable"
"LazySynt (genDel)","factory_assembly_5x3_1_5errors.aag","18.04","18.0461","Unrealizable"
"Simple BDD Solver (2016)","factory_assembly_5x3_1_5errors.aag","2.164","2.16899","Unrealizable"
"Simple BDD Solver w/ Abs.","factory_assembly_5x3_1_5errors.aag","0.752","0.756596","Unrealizable"
"Simple BDD Solver w/ Abs. 2","factory_assembly_5x3_1_5errors.aag","1.54","1.54339","Unrealizable"
"LazySynt","factory_assembly_5x4_1_0errors.aag","20.836","20.8463","Unrealizable"
"LazySynt (genDel)","factory_assembly_5x4_1_0errors.aag","18.456","18.4692","Unrealizable"
"Simple BDD Solver (2016)","factory_assembly_5x4_1_0errors.aag","3.232","3.23612","Unrealizable"
"Simple BDD Solver w/ Abs.","factory_assembly_5x4_1_0errors.aag","0.42","0.422066","Unrealizable"
"Simple BDD Solver w/ Abs. 2","factory_assembly_5x4_1_0errors.aag","0.428","0.432003","Unrealizable"
"LazySynt","factory_assembly_5x5_2_0errors.aag","240.776","240.813","No output"
"LazySynt (genDel)","factory_assembly_5x5_2_0errors.aag","360.652","360.73","No output"
"Simple BDD Solver (2016)","factory_assembly_5x5_2_0errors.aag","29.684","29.6923","Realizable"
"Simple BDD Solver w/ Abs.","factory_assembly_5x5_2_0errors.aag","70.14","70.1396","Realizable"
"Simple BDD Solver w/ Abs. 2","factory_assembly_5x5_2_0errors.aag","209.016","209.011","Realizable"
"LazySynt","factory_assembly_5x5_2_10errors.aag","3600.02","3600.3","time limit exceeded"
"LazySynt (genDel)","factory_assembly_5x5_2_10errors.aag","3600.09","3600.0","time limit exceeded"
"Simple BDD Solver (2016)","factory_assembly_5x5_2_10errors.aag","3600.04","3599.9","time limit exceeded"
"Simple BDD Solver w/ Abs.","factory_assembly_5x5_2_10errors.aag","395.444","395.438","Realizable"
"Simple BDD Solver w/ Abs. 2","factory_assembly_5x5_2_10errors.aag","471.856","471.859","Realizable"
"LazySynt","factory_assembly_5x5_2_11errors.aag","3600.1","3600.3","time limit exceeded"
"LazySynt (genDel)","factory_assembly_5x5_2_11errors.aag","3600.1","3600.1","time limit exceeded"
"Simple BDD Solver (2016)","factory_assembly_5x5_2_11errors.aag","3600.02","3599.9","time limit exceeded"
"Simple BDD Solver w/ Abs.","factory_assembly_5x5_2_11errors.aag","402.976","402.986","Unrealizable"
"Simple BDD Solver w/ Abs. 2","factory_assembly_5x5_2_11errors.aag","580.948","580.95","Unrealizable"
"LazySynt","factory_assembly_5x5_2_1errors.aag","925.5","925.525","No output"
"LazySynt (genDel)","factory_assembly_5x5_2_1errors.aag","649.144","649.178","No output"
"Simple BDD Solver (2016)","factory_assembly_5x5_2_1errors.aag","873.964","873.949","Realizable"
"Simple BDD Solver w/ Abs.","factory_assembly_5x5_2_1errors.aag","68.74","68.7495","Realizable"
"Simple BDD Solver w/ Abs. 2","factory_assembly_5x5_2_1errors.aag","319.316","319.303","Realizable"
"LazySynt","factory_assembly_5x6_2_0errors.aag","3600.04","3599.9","time limit exceeded"
"LazySynt (genDel)","factory_assembly_5x6_2_0errors.aag","3600.08","3600.31","time limit exceeded"
"Simple BDD Solver (2016)","factory_assembly_5x6_2_0errors.aag","2272.59","2272.52","Unrealizable"
"Simple BDD Solver w/ Abs.","factory_assembly_5x6_2_0errors.aag","1356.61","1356.71","Unrealizable"
"Simple BDD Solver w/ Abs. 2","factory_assembly_5x6_2_0errors.aag","1290.18","1290.26","Unrealizable"
"LazySynt","factory_assembly_7x3_1_0errors.aag","7.484","7.49694","No output"
"LazySynt (genDel)","factory_assembly_7x3_1_0errors.aag","9.7","9.71014","No output"
"Simple BDD Solver (2016)","factory_assembly_7x3_1_0errors.aag","2.024","2.02564","Realizable"
"Simple BDD Solver w/ Abs.","factory_assembly_7x3_1_0errors.aag","3.828","3.83015","Realizable"
"Simple BDD Solver w/ Abs. 2","factory_assembly_7x3_1_0errors.aag","7.476","7.47997","Realizable"
"LazySynt","factory_assembly_7x5_2_0errors.aag","1990.8","1990.84","No output"
"LazySynt (genDel)","factory_assembly_7x5_2_0errors.aag","1549.8","1549.93","No output"
"Simple BDD Solver (2016)","factory_assembly_7x5_2_0errors.aag","523.116","523.122","Realizable"
"Simple BDD Solver w/ Abs.","factory_assembly_7x5_2_0errors.aag","489.712","489.717","Realizable"
"Simple BDD Solver w/ Abs. 2","factory_assembly_7x5_2_0errors.aag","3600.0","3599.91","time limit exceeded"
"LazySynt","factory_assembly_7x5_2_10errors.aag","3600.04","3599.9","time limit exceeded"
"LazySynt (genDel)","factory_assembly_7x5_2_10errors.aag","3600.01","3600.3","time limit exceeded"
"Simple BDD Solver (2016)","factory_assembly_7x5_2_10errors.aag","3600.03","3599.9","time limit exceeded"
"Simple BDD Solver w/ Abs.","factory_assembly_7x5_2_10errors.aag","3600.02","3599.91","time limit exceeded"
"Simple BDD Solver w/ Abs. 2","factory_assembly_7x5_2_10errors.aag","3600.11","3600.0","time limit exceeded"
"LazySynt","factory_assembly_7x5_2_11errors.aag","3600.09","3600.3","time limit exceeded"
"LazySynt (genDel)","factory_assembly_7x5_2_11errors.aag","3600.02","3600.2","time limit exceeded"
"Simple BDD Solver (2016)","factory_assembly_7x5_2_11errors.aag","3600.08","3600.0","time limit exceeded"
"Simple BDD Solver w/ Abs.","factory_assembly_7x5_2_11errors.aag","3600.01","3599.9","time limit exceeded"
"Simple BDD Solver w/ Abs. 2","factory_assembly_7x5_2_11errors.aag","3600.02","3599.91","time limit exceeded"
"LazySynt","gb_s2_r2_comp1_UNREAL.aag","29.588","29.593","Unrealizable"
"LazySynt (genDel)","gb_s2_r2_comp1_UNREAL.aag","14.728","14.732","Unrealizable"
"Simple BDD Solver (2016)","gb_s2_r2_comp1_UNREAL.aag","13.704","13.707","Unrealizable"
"Simple BDD Solver w/ Abs.","gb_s2_r2_comp1_UNREAL.aag","416.028","416.012","Unrealizable"
"Simple BDD Solver w/ Abs. 2","gb_s2_r2_comp1_UNREAL.aag","182.608","182.617","Unrealizable"
"LazySynt","gb_s2_r2_comp2_UNREAL.aag","3600.02","3600.0","time limit exceeded"
"LazySynt (genDel)","gb_s2_r2_comp2_UNREAL.aag","3600.03","3600.5","time limit exceeded"
"Simple BDD Solver (2016)","gb_s2_r2_comp2_UNREAL.aag","3600.07","3599.9","time limit exceeded"
"Simple BDD Solver w/ Abs.","gb_s2_r2_comp2_UNREAL.aag","2208.73","2208.64","Unrealizable"
"Simple BDD Solver w/ Abs. 2","gb_s2_r2_comp2_UNREAL.aag","2344.42","2344.32","Unrealizable"
"LazySynt","gb_s2_r2_comp3_REAL.aag","3600.06","3599.9","time limit exceeded"
"LazySynt (genDel)","gb_s2_r2_comp3_REAL.aag","3600.05","3600.0","time limit exceeded"
"Simple BDD Solver (2016)","gb_s2_r2_comp3_REAL.aag","3600.05","3599.9","time limit exceeded"
"Simple BDD Solver w/ Abs.","gb_s2_r2_comp3_REAL.aag","3600.06","3599.9","time limit exceeded"
"Simple BDD Solver w/ Abs. 2","gb_s2_r2_comp3_REAL.aag","3600.07","3599.9","time limit exceeded"
"LazySynt","gb_s2_r2_comp4_REAL.aag","3600.09","3600.6","time limit exceeded"
"LazySynt (genDel)","gb_s2_r2_comp4_REAL.aag","3600.05","3599.9","time limit exceeded"
"Simple BDD Solver (2016)","gb_s2_r2_comp4_REAL.aag","3600.05","3600.2","time limit exceeded"
"Simple BDD Solver w/ Abs.","gb_s2_r2_comp4_REAL.aag","3600.06","3600.2","time limit exceeded"
"Simple BDD Solver w/ Abs. 2","gb_s2_r2_comp4_REAL.aag","3600.07","3599.9","time limit exceeded"
"LazySynt","gb_s2_r3_comp1_UNREAL.aag","725.86","725.906","Unrealizable"
"LazySynt (genDel)","gb_s2_r3_comp1_UNREAL.aag","3600.05","3600.0","time limit exceeded"
"Simple BDD Solver (2016)","gb_s2_r3_comp1_UNREAL.aag","3600.07","3599.9","time limit exceeded"
"Simple BDD Solver w/ Abs.","gb_s2_r3_comp1_UNREAL.aag","3600.07","3599.9","time limit exceeded"
"Simple BDD Solver w/ Abs. 2","gb_s2_r3_comp1_UNREAL.aag","3600.07","3599.91","time limit exceeded"
"LazySynt","gb_s2_r3_comp3_REAL.aag","3600.06","3599.9","time limit exceeded"
"LazySynt (genDel)","gb_s2_r3_comp3_REAL.aag","3600.04","3600.2","time limit exceeded"
"Simple BDD Solver (2016)","gb_s2_r3_comp3_REAL.aag","3600.07","3599.9","time limit exceeded"
"Simple BDD Solver w/ Abs.","gb_s2_r3_comp3_REAL.aag","3600.08","3599.9","time limit exceeded"
"Simple BDD Solver w/ Abs. 2","gb_s2_r3_comp3_REAL.aag","3600.06","3600.2","time limit exceeded"
"LazySynt","gb_s2_r4_comp1_UNREAL.aag","3600.03","3600.0","time limit exceeded"
"LazySynt (genDel)","gb_s2_r4_comp1_UNREAL.aag","3600.07","3599.9","time limit exceeded"
"Simple BDD Solver (2016)","gb_s2_r4_comp1_UNREAL.aag","3600.07","3599.9","time limit exceeded"
"Simple BDD Solver w/ Abs.","gb_s2_r4_comp1_UNREAL.aag","3600.06","3600.2","time limit exceeded"
"Simple BDD Solver w/ Abs. 2","gb_s2_r4_comp1_UNREAL.aag","3600.07","3599.9","time limit exceeded"
"LazySynt","gb_s2_r4_comp5_REAL.aag","3600.04","3600.2","time limit exceeded"
"LazySynt (genDel)","gb_s2_r4_comp5_REAL.aag","3600.06","3600.3","time limit exceeded"
"Simple BDD Solver (2016)","gb_s2_r4_comp5_REAL.aag","3600.06","3599.9","time limit exceeded"
"Simple BDD Solver w/ Abs.","gb_s2_r4_comp5_REAL.aag","3600.08","3599.9","time limit exceeded"
"Simple BDD Solver w/ Abs. 2","gb_s2_r4_comp5_REAL.aag","3600.08","3599.9","time limit exceeded"
"LazySynt","genbuf20b3unrealy.aag","3600.06","3600.0","time limit exceeded"
"LazySynt (genDel)","genbuf20b3unrealy.aag","3600.08","3600.3","time limit exceeded"
"Simple BDD Solver (2016)","genbuf20b3unrealy.aag","7.416","7.4193","Unrealizable"
"Simple BDD Solver w/ Abs.","genbuf20b3unrealy.aag","14.66","14.6608","Unrealizable"
"Simple BDD Solver w/ Abs. 2","genbuf20b3unrealy.aag","2950.27","2950.14","Unrealizable"
"LazySynt","genbuf20c10n.aag","470.576","470.644","No output"
"LazySynt (genDel)","genbuf20c10n.aag","86.468","86.4976","No output"
"Simple BDD Solver (2016)","genbuf20c10n.aag","4.484","4.48901","Realizable"
"Simple BDD Solver w/ Abs.","genbuf20c10n.aag","12.808","12.8147","Realizable"
"Simple BDD Solver w/ Abs. 2","genbuf20c10n.aag","3600.01","3600.2","time limit exceeded"
"LazySynt","genbuf24b14n.aag","3600.0","3600.11","time limit exceeded"
"LazySynt (genDel)","genbuf24b14n.aag","3600.07","3600.0","time limit exceeded"
"Simple BDD Solver (2016)","genbuf24b14n.aag","2.96","2.96266","Realizable"
"Simple BDD Solver w/ Abs.","genbuf24b14n.aag","22.424","22.4247","Realizable"
"Simple BDD Solver w/ Abs. 2","genbuf24b14n.aag","1135.9","1135.97","Realizable"
"LazySynt","genbuf24c2unrealy.aag","3600.09","3600.4","time limit exceeded"
"LazySynt (genDel)","genbuf24c2unrealy.aag","3600.07","3600.1","time limit exceeded"
"Simple BDD Solver (2016)","genbuf24c2unrealy.aag","293.424","293.412","Unrealizable"
"Simple BDD Solver w/ Abs.","genbuf24c2unrealy.aag","27.228","27.2306","Unrealizable"
"Simple BDD Solver w/ Abs. 2","genbuf24c2unrealy.aag","3600.1","3600.3","time limit exceeded"
"LazySynt","genbuf28c14n.aag","750.944","750.99","No output"
"LazySynt (genDel)","genbuf28c14n.aag","172.004","172.027","No output"
"Simple BDD Solver (2016)","genbuf28c14n.aag","16.496","16.497","Realizable"
"Simple BDD Solver w/ Abs.","genbuf28c14n.aag","62.768","62.7676","Realizable"
"Simple BDD Solver w/ Abs. 2","genbuf28c14n.aag","3600.08","3600.31","time limit exceeded"
"LazySynt","genbuf28f27unrealn.aag","3600.09","3600.0","time limit exceeded"
"LazySynt (genDel)","genbuf28f27unrealn.aag","3600.01","3600.2","time limit exceeded"
"Simple BDD Solver (2016)","genbuf28f27unrealn.aag","38.264","38.2764","Unrealizable"
"Simple BDD Solver w/ Abs.","genbuf28f27unrealn.aag","191.24","191.239","Unrealizable"
"Simple BDD Solver w/ Abs. 2","genbuf28f27unrealn.aag","285.868","285.866","Unrealizable"
"LazySynt","genbuf32b3unrealy.aag","3600.03","3600.1","time limit exceeded"
"LazySynt (genDel)","genbuf32b3unrealy.aag","3600.06","3600.0","time limit exceeded"
"Simple BDD Solver (2016)","genbuf32b3unrealy.aag","8.112","8.11658","Unrealizable"
"Simple BDD Solver w/ Abs.","genbuf32b3unrealy.aag","12.048","12.0493","Unrealizable"
"Simple BDD Solver w/ Abs. 2","genbuf32b3unrealy.aag","3600.04","3599.9","time limit exceeded"
"LazySynt","genbuf32f50n.aag","3600.05","3600.31","time limit exceeded"
"LazySynt (genDel)","genbuf32f50n.aag","3600.03","3600.3","time limit exceeded"
"Simple BDD Solver (2016)","genbuf32f50n.aag","154.16","154.168","Realizable"
"Simple BDD Solver w/ Abs.","genbuf32f50n.aag","577.972","577.963","Realizable"
"Simple BDD Solver w/ Abs. 2","genbuf32f50n.aag","984.448","984.425","Realizable"
"LazySynt","genbuf40b14n.aag","3600.09","3600.31","time limit exceeded"
"LazySynt (genDel)","genbuf40b14n.aag","3600.08","3600.41","time limit exceeded"
"Simple BDD Solver (2016)","genbuf40b14n.aag","23.032","23.0371","Realizable"
"Simple BDD Solver w/ Abs.","genbuf40b14n.aag","65.88","65.8878","Realizable"
"Simple BDD Solver w/ Abs. 2","genbuf40b14n.aag","3600.04","3600.2","time limit exceeded"
"LazySynt","genbuf40f39unrealy.aag","3600.06","3600.1","time limit exceeded"
"LazySynt (genDel)","genbuf40f39unrealy.aag","3600.04","3599.9","time limit exceeded"
"Simple BDD Solver (2016)","genbuf40f39unrealy.aag","533.012","533.015","Unrealizable"
"Simple BDD Solver w/ Abs.","genbuf40f39unrealy.aag","2990.68","2990.56","Unrealizable"
"Simple BDD Solver w/ Abs. 2","genbuf40f39unrealy.aag","3600.07","3599.91","time limit exceeded"
"LazySynt","genbuf48b3unrealy.aag","3600.07","3600.6","time limit exceeded"
"LazySynt (genDel)","genbuf48b3unrealy.aag","3600.08","3600.1","time limit exceeded"
"Simple BDD Solver (2016)","genbuf48b3unrealy.aag","109.788","109.784","Unrealizable"
"Simple BDD Solver w/ Abs.","genbuf48b3unrealy.aag","53.992","53.9943","Unrealizable"
"Simple BDD Solver w/ Abs. 2","genbuf48b3unrealy.aag","3600.1","3600.3","time limit exceeded"
"LazySynt","genbuf48c20n.aag","3600.04","3600.31","time limit exceeded"
"LazySynt (genDel)","genbuf48c20n.aag","1268.94","1269.1","No output"
"Simple BDD Solver (2016)","genbuf48c20n.aag","1386.19","1386.15","Realizable"
"Simple BDD Solver w/ Abs.","genbuf48c20n.aag","597.836","597.882","Realizable"
"Simple BDD Solver w/ Abs. 2","genbuf48c20n.aag","3600.04","3599.9","time limit exceeded"
"LazySynt","genbuf56c20y.aag","3600.0","3600.31","time limit exceeded"
"LazySynt (genDel)","genbuf56c20y.aag","3600.08","3600.01","time limit exceeded"
"Simple BDD Solver (2016)","genbuf56c20y.aag","2523.66","2523.8","Realizable"
"Simple BDD Solver w/ Abs.","genbuf56c20y.aag","916.96","917.026","Realizable"
"Simple BDD Solver w/ Abs. 2","genbuf56c20y.aag","3600.06","3599.9","time limit exceeded"
"LazySynt","genbuf56f55unrealy.aag","3600.02","3600.0","time limit exceeded"
"LazySynt (genDel)","genbuf56f55unrealy.aag","3600.1","3600.3","time limit exceeded"
"Simple BDD Solver (2016)","genbuf56f55unrealy.aag","1178.4","1178.47","Unrealizable"
"Simple BDD Solver w/ Abs.","genbuf56f55unrealy.aag","3600.05","3599.9","time limit exceeded"
"Simple BDD Solver w/ Abs. 2","genbuf56f55unrealy.aag","3600.07","3599.9","time limit exceeded"
"LazySynt","genbuf64b40n.aag","3600.02","3600.01","time limit exceeded"
"LazySynt (genDel)","genbuf64b40n.aag","3600.02","3600.11","time limit exceeded"
"Simple BDD Solver (2016)","genbuf64b40n.aag","181.104","181.13","Realizable"
"Simple BDD Solver w/ Abs.","genbuf64b40n.aag","302.912","302.9","Realizable"
"Simple BDD Solver w/ Abs. 2","genbuf64b40n.aag","3600.01","3599.91","time limit exceeded"
"LazySynt","genbuf64c2unrealy.aag","3600.04","3600.6","time limit exceeded"
"LazySynt (genDel)","genbuf64c2unrealy.aag","3600.07","3600.0","time limit exceeded"
"Simple BDD Solver (2016)","genbuf64c2unrealy.aag","3600.09","3600.0","time limit exceeded"
"Simple BDD Solver w/ Abs.","genbuf64c2unrealy.aag","3600.06","3599.9","time limit exceeded"
"Simple BDD Solver w/ Abs. 2","genbuf64c2unrealy.aag","3600.05","3599.91","time limit exceeded"
"LazySynt","good_bakery.false.aag","3600.07","3600.1","time limit exceeded"
"LazySynt (genDel)","good_bakery.false.aag","3600.04","3600.6","time limit exceeded"
"Simple BDD Solver (2016)","good_bakery.false.aag","3600.1","3600.0","time limit exceeded"
"Simple BDD Solver w/ Abs.","good_bakery.false.aag","57.66","57.6661","Unrealizable"
"Simple BDD Solver w/ Abs. 2","good_bakery.false.aag","86.932","86.9311","Unrealizable"
"LazySynt","good_bakery.wuntil.aag","979.692","979.694","No output"
"LazySynt (genDel)","good_bakery.wuntil.aag","905.848","905.985","No output"
"Simple BDD Solver (2016)","good_bakery.wuntil.aag","4.124","4.12889","Realizable"
"Simple BDD Solver w/ Abs.","good_bakery.wuntil.aag","0.848","0.853154","Realizable"
"Simple BDD Solver w/ Abs. 2","good_bakery.wuntil.aag","0.88","0.883266","Realizable"
"LazySynt","halfadder_shiftedmatch.aag","0.076","0.084842","No output"
"LazySynt (genDel)","halfadder_shiftedmatch.aag","0.076","0.085706","No output"
"Simple BDD Solver (2016)","halfadder_shiftedmatch.aag","0.0","0.005225","Realizable"
"Simple BDD Solver w/ Abs.","halfadder_shiftedmatch.aag","0.0","0.005372","Realizable"
"Simple BDD Solver w/ Abs. 2","halfadder_shiftedmatch.aag","0.0","0.00527","Realizable"
"LazySynt","interface-with-overflows-k10-liveness.aag","338.896","338.906","No output"
"LazySynt (genDel)","interface-with-overflows-k10-liveness.aag","98.544","98.5557","Realizable not recognized"
"Simple BDD Solver (2016)","interface-with-overflows-k10-liveness.aag","6.72","6.72409","Realizable"
"Simple BDD Solver w/ Abs.","interface-with-overflows-k10-liveness.aag","203.84","203.831","Realizable"
"Simple BDD Solver w/ Abs. 2","interface-with-overflows-k10-liveness.aag","26.38","26.3824","Realizable"
"LazySynt","interface-with-overflows-k16-liveness.aag","125.168","125.197","No output"
"LazySynt (genDel)","interface-with-overflows-k16-liveness.aag","246.88","246.902","Realizable not recognized"
"Simple BDD Solver (2016)","interface-with-overflows-k16-liveness.aag","66.552","66.5618","Realizable"
"Simple BDD Solver w/ Abs.","interface-with-overflows-k16-liveness.aag","19.068","19.0779","Realizable"
"Simple BDD Solver w/ Abs. 2","interface-with-overflows-k16-liveness.aag","25.544","25.5503","Realizable"
"LazySynt","interface-with-overflows-k5-liveness.aag","22.512","22.5174","Unrealizable"
"LazySynt (genDel)","interface-with-overflows-k5-liveness.aag","18.532","18.5365","Unrealizable"
"Simple BDD Solver (2016)","interface-with-overflows-k5-liveness.aag","2.684","2.68918","Unrealizable"
"Simple BDD Solver w/ Abs.","interface-with-overflows-k5-liveness.aag","9.18","9.18753","Unrealizable"
"Simple BDD Solver w/ Abs. 2","interface-with-overflows-k5-liveness.aag","46.152","46.1681","Unrealizable"
"LazySynt","interface-with-overflows-k8-liveness.aag","152.688","152.71","Unrealizable"
"LazySynt (genDel)","interface-with-overflows-k8-liveness.aag","91.172","91.1883","Unrealizable"
"Simple BDD Solver (2016)","interface-with-overflows-k8-liveness.aag","3.224","3.22784","Unrealizable"
"Simple BDD Solver w/ Abs.","interface-with-overflows-k8-liveness.aag","160.552","160.564","Unrealizable"
"Simple BDD Solver w/ Abs. 2","interface-with-overflows-k8-liveness.aag","10.292","10.2948","Unrealizable"
"LazySynt","interface-with-overflows-k9-liveness.aag","155.456","155.473","Unrealizable"
"LazySynt (genDel)","interface-with-overflows-k9-liveness.aag","87.556","87.5799","Unrealizable"
"Simple BDD Solver (2016)","interface-with-overflows-k9-liveness.aag","7.108","7.11349","Unrealizable"
"Simple BDD Solver w/ Abs.","interface-with-overflows-k9-liveness.aag","209.704","209.698","Unrealizable"
"Simple BDD Solver w/ Abs. 2","interface-with-overflows-k9-liveness.aag","9.62","9.62337","Unrealizable"
"LazySynt","load_3c_comp_comp2_REAL.aag","93.524","93.5431","No output"
"LazySynt (genDel)","load_3c_comp_comp2_REAL.aag","63.252","63.2693","No output"
"Simple BDD Solver (2016)","load_3c_comp_comp2_REAL.aag","3.068","3.06943","Realizable"
"Simple BDD Solver w/ Abs.","load_3c_comp_comp2_REAL.aag","7.264","7.26617","Realizable"
"Simple BDD Solver w/ Abs. 2","load_3c_comp_comp2_REAL.aag","5.692","5.69558","Realizable"
"LazySynt","load_3c_comp_comp4_REAL.aag","188.86","188.885","No output"
"LazySynt (genDel)","load_3c_comp_comp4_REAL.aag","155.828","155.851","No output"
"Simple BDD Solver (2016)","load_3c_comp_comp4_REAL.aag","12.052","12.0549","Realizable"
"Simple BDD Solver w/ Abs.","load_3c_comp_comp4_REAL.aag","37.98","37.9864","Realizable"
"Simple BDD Solver w/ Abs. 2","load_3c_comp_comp4_REAL.aag","8.348","8.34998","Realizable"
"LazySynt","load_4c_comp_comp1_UNREAL.aag","18.888","18.8947","Unrealizable"
"LazySynt (genDel)","load_4c_comp_comp1_UNREAL.aag","55.908","55.9178","Unrealizable"
"Simple BDD Solver (2016)","load_4c_comp_comp1_UNREAL.aag","5.056","5.06073","Unrealizable"
"Simple BDD Solver w/ Abs.","load_4c_comp_comp1_UNREAL.aag","9.912","9.9134","Unrealizable"
"Simple BDD Solver w/ Abs. 2","load_4c_comp_comp1_UNREAL.aag","22.768","22.7708","Unrealizable"
"LazySynt","load_4c_comp_comp7_REAL.aag","3600.04","3599.9","time limit exceeded"
"LazySynt (genDel)","load_4c_comp_comp7_REAL.aag","2135.41","2135.58","No output"
"Simple BDD Solver (2016)","load_4c_comp_comp7_REAL.aag","3600.05","3600.2","time limit exceeded"
"Simple BDD Solver w/ Abs.","load_4c_comp_comp7_REAL.aag","738.06","738.04","Realizable"
"Simple BDD Solver w/ Abs. 2","load_4c_comp_comp7_REAL.aag","322.972","322.962","Realizable"
"LazySynt","load_5c_comp_comp3_UNREAL.aag","3600.02","3600.2","time limit exceeded"
"LazySynt (genDel)","load_5c_comp_comp3_UNREAL.aag","3600.05","3599.9","time limit exceeded"
"Simple BDD Solver (2016)","load_5c_comp_comp3_UNREAL.aag","3600.06","3599.9","time limit exceeded"
"Simple BDD Solver w/ Abs.","load_5c_comp_comp3_UNREAL.aag","3600.05","3600.2","time limit exceeded"
"Simple BDD Solver w/ Abs. 2","load_5c_comp_comp3_UNREAL.aag","3600.06","3599.9","time limit exceeded"
"LazySynt","load_5c_comp_comp4_REAL.aag","3600.04","3600.0","time limit exceeded"
"LazySynt (genDel)","load_5c_comp_comp4_REAL.aag","3600.11","3600.31","time limit exceeded"
"Simple BDD Solver (2016)","load_5c_comp_comp4_REAL.aag","3600.05","3600.2","time limit exceeded"
"Simple BDD Solver w/ Abs.","load_5c_comp_comp4_REAL.aag","3600.07","3599.9","time limit exceeded"
"Simple BDD Solver w/ Abs. 2","load_5c_comp_comp4_REAL.aag","3600.06","3599.9","time limit exceeded"
"LazySynt","load_full_2_comp1_UNREAL.aag","2.132","2.13676","Unrealizable"
"LazySynt (genDel)","load_full_2_comp1_UNREAL.aag","1.884","1.88811","Unrealizable"
"Simple BDD Solver (2016)","load_full_2_comp1_UNREAL.aag","0.348","0.350524","Unrealizable"
"Simple BDD Solver w/ Abs.","load_full_2_comp1_UNREAL.aag","1.02","1.02429","Unrealizable"
"Simple BDD Solver w/ Abs. 2","load_full_2_comp1_UNREAL.aag","1.108","1.11197","Unrealizable"
"LazySynt","load_full_2_comp5_REAL.aag","3600.07","3599.9","time limit exceeded"
"LazySynt (genDel)","load_full_2_comp5_REAL.aag","21.808","21.8215","No output"
"Simple BDD Solver (2016)","load_full_2_comp5_REAL.aag","5.608","5.60984","Realizable"
"Simple BDD Solver w/ Abs.","load_full_2_comp5_REAL.aag","10.636","10.6386","Realizable"
"Simple BDD Solver w/ Abs. 2","load_full_2_comp5_REAL.aag","13.356","13.3584","Realizable"
"LazySynt","load_full_3_comp1_UNREAL.aag","3600.06","3600.0","time limit exceeded"
"LazySynt (genDel)","load_full_3_comp1_UNREAL.aag","3600.03","3600.2","time limit exceeded"
"Simple BDD Solver (2016)","load_full_3_comp1_UNREAL.aag","76.8","76.8046","Unrealizable"
"Simple BDD Solver w/ Abs.","load_full_3_comp1_UNREAL.aag","1494.96","1495.04","Unrealizable"
"Simple BDD Solver w/ Abs. 2","load_full_3_comp1_UNREAL.aag","2428.82","2428.71","Unrealizable"
"LazySynt","load_full_3_comp3_REAL.aag","3600.07","3599.9","time limit exceeded"
"LazySynt (genDel)","load_full_3_comp3_REAL.aag","3600.06","3600.0","time limit exceeded"
"Simple BDD Solver (2016)","load_full_3_comp3_REAL.aag","3600.08","3599.9","time limit exceeded"
"Simple BDD Solver w/ Abs.","load_full_3_comp3_REAL.aag","3600.06","3600.2","time limit exceeded"
"Simple BDD Solver w/ Abs. 2","load_full_3_comp3_REAL.aag","3600.06","3599.9","time limit exceeded"
"LazySynt","load_full_4_comp1_REAL.aag","3600.03","3600.2","time limit exceeded"
"LazySynt (genDel)","load_full_4_comp1_REAL.aag","3600.06","3600.2","time limit exceeded"
"Simple BDD Solver (2016)","load_full_4_comp1_REAL.aag","3600.06","3599.9","time limit exceeded"
"Simple BDD Solver w/ Abs.","load_full_4_comp1_REAL.aag","3600.07","3599.9","time limit exceeded"
"Simple BDD Solver w/ Abs. 2","load_full_4_comp1_REAL.aag","3600.05","3600.2","time limit exceeded"
"LazySynt","load_full_4_comp2_REAL.aag","3600.04","3600.3","time limit exceeded"
"LazySynt (genDel)","load_full_4_comp2_REAL.aag","3600.02","3600.2","time limit exceeded"
"Simple BDD Solver (2016)","load_full_4_comp2_REAL.aag","3600.04","3599.9","time limit exceeded"
"Simple BDD Solver w/ Abs.","load_full_4_comp2_REAL.aag","3600.07","3599.9","time limit exceeded"
"Simple BDD Solver w/ Abs. 2","load_full_4_comp2_REAL.aag","3600.06","3600.2","time limit exceeded"
"LazySynt","load_full_5_comp1_REAL.aag","3600.05","3599.9","time limit exceeded"
"LazySynt (genDel)","load_full_5_comp1_REAL.aag","3600.04","3600.0","time limit exceeded"
"Simple BDD Solver (2016)","load_full_5_comp1_REAL.aag","3600.07","3599.9","time limit exceeded"
"Simple BDD Solver w/ Abs.","load_full_5_comp1_REAL.aag","3600.06","3600.2","time limit exceeded"
"Simple BDD Solver w/ Abs. 2","load_full_5_comp1_REAL.aag","3600.06","3600.2","time limit exceeded"
"LazySynt","load_full_5_comp2_REAL.aag","3600.02","3600.2","time limit exceeded"
"LazySynt (genDel)","load_full_5_comp2_REAL.aag","3600.05","3599.9","time limit exceeded"
"Simple BDD Solver (2016)","load_full_5_comp2_REAL.aag","3600.06","3599.9","time limit exceeded"
"Simple BDD Solver w/ Abs.","load_full_5_comp2_REAL.aag","3600.06","3600.21","time limit exceeded"
"Simple BDD Solver w/ Abs. 2","load_full_5_comp2_REAL.aag","3600.05","3599.9","time limit exceeded"
"LazySynt","load_full_6_comp1_UNREAL.aag","3600.04","3600.0","time limit exceeded"
"LazySynt (genDel)","load_full_6_comp1_UNREAL.aag","3600.01","3600.2","time limit exceeded"
"Simple BDD Solver (2016)","load_full_6_comp1_UNREAL.aag","3600.07","3599.9","time limit exceeded"
"Simple BDD Solver w/ Abs.","load_full_6_comp1_UNREAL.aag","3600.07","3599.9","time limit exceeded"
"Simple BDD Solver w/ Abs. 2","load_full_6_comp1_UNREAL.aag","3600.07","3599.9","time limit exceeded"
"LazySynt","load_full_6_comp2_REAL.aag","3600.1","3600.0","time limit exceeded"
"LazySynt (genDel)","load_full_6_comp2_REAL.aag","3600.08","3600.1","time limit exceeded"
"Simple BDD Solver (2016)","load_full_6_comp2_REAL.aag","3600.06","3600.2","time limit exceeded"
"Simple BDD Solver w/ Abs.","load_full_6_comp2_REAL.aag","3600.05","3599.9","time limit exceeded"
"Simple BDD Solver w/ Abs. 2","load_full_6_comp2_REAL.aag","3600.07","3599.9","time limit exceeded"
"LazySynt","ltl2dba_beta5_comp3_UNREAL.aag","3600.1","3600.6","time limit exceeded"
"LazySynt (genDel)","ltl2dba_beta5_comp3_UNREAL.aag","3600.03","3600.2","time limit exceeded"
"Simple BDD Solver (2016)","ltl2dba_beta5_comp3_UNREAL.aag","3600.04","3599.9","time limit exceeded"
"Simple BDD Solver w/ Abs.","ltl2dba_beta5_comp3_UNREAL.aag","3600.06","3599.9","time limit exceeded"
"Simple BDD Solver w/ Abs. 2","ltl2dba_beta5_comp3_UNREAL.aag","3600.06","3600.2","time limit exceeded"
"LazySynt","ltl2dba_C2-8_comp4_REAL.aag","19.46","19.4708","No output"
"LazySynt (genDel)","ltl2dba_C2-8_comp4_REAL.aag","9.224","9.23499","No output"
"Simple BDD Solver (2016)","ltl2dba_C2-8_comp4_REAL.aag","0.952","0.955708","Realizable"
"Simple BDD Solver w/ Abs.","ltl2dba_C2-8_comp4_REAL.aag","2.896","2.89965","Realizable"
"Simple BDD Solver w/ Abs. 2","ltl2dba_C2-8_comp4_REAL.aag","0.292","0.294467","Realizable"
"LazySynt","ltl2dba_E4_comp4_REAL.aag","8.696","8.70553","No output"
"LazySynt (genDel)","ltl2dba_E4_comp4_REAL.aag","14.576","14.5874","No output"
"Simple BDD Solver (2016)","ltl2dba_E4_comp4_REAL.aag","3600.06","3599.9","time limit exceeded"
"Simple BDD Solver w/ Abs.","ltl2dba_E4_comp4_REAL.aag","1293.91","1293.88","Realizable"
"Simple BDD Solver w/ Abs. 2","ltl2dba_E4_comp4_REAL.aag","723.98","723.968","Realizable"
"LazySynt","ltl2dba_E6_comp2_REAL.aag","1317.68","1317.63","No output"
"LazySynt (genDel)","ltl2dba_E6_comp2_REAL.aag","1309.74","1309.74","No output"
"Simple BDD Solver (2016)","ltl2dba_E6_comp2_REAL.aag","3600.06","3599.9","time limit exceeded"
"Simple BDD Solver w/ Abs.","ltl2dba_E6_comp2_REAL.aag","3600.06","3599.9","time limit exceeded"
"Simple BDD Solver w/ Abs. 2","ltl2dba_E6_comp2_REAL.aag","3600.05","3600.2","time limit exceeded"
"LazySynt","ltl2dba_Q4_comp2_REAL.aag","35.364","35.3741","No output"
"LazySynt (genDel)","ltl2dba_Q4_comp2_REAL.aag","49.196","49.2054","No output"
"Simple BDD Solver (2016)","ltl2dba_Q4_comp2_REAL.aag","1740.14","1740.08","Realizable"
"Simple BDD Solver w/ Abs.","ltl2dba_Q4_comp2_REAL.aag","1043.12","1043.09","Realizable"
"Simple BDD Solver w/ Abs. 2","ltl2dba_Q4_comp2_REAL.aag","1166.58","1166.55","Realizable"
"LazySynt","ltl2dba_Q6_comp2_REAL.aag","3600.04","3600.6","time limit exceeded"
"LazySynt (genDel)","ltl2dba_Q6_comp2_REAL.aag","3600.09","3600.0","time limit exceeded"
"Simple BDD Solver (2016)","ltl2dba_Q6_comp2_REAL.aag","3600.03","3600.21","time limit exceeded"
"Simple BDD Solver w/ Abs.","ltl2dba_Q6_comp2_REAL.aag","3600.05","3600.2","time limit exceeded"
"Simple BDD Solver w/ Abs. 2","ltl2dba_Q6_comp2_REAL.aag","3600.06","3599.9","time limit exceeded"
"LazySynt","ltl2dba_R4_comp3_UNREAL.aag","3600.06","3600.0","time limit exceeded"
"LazySynt (genDel)","ltl2dba_R4_comp3_UNREAL.aag","3600.04","3600.2","time limit exceeded"
"Simple BDD Solver (2016)","ltl2dba_R4_comp3_UNREAL.aag","3600.06","3599.9","time limit exceeded"
"Simple BDD Solver w/ Abs.","ltl2dba_R4_comp3_UNREAL.aag","3600.06","3599.9","time limit exceeded"
"Simple BDD Solver w/ Abs. 2","ltl2dba_R4_comp3_UNREAL.aag","3600.07","3599.9","time limit exceeded"
"LazySynt","ltl2dba_R6_comp3_UNREAL.aag","3600.07","3600.21","time limit exceeded"
"LazySynt (genDel)","ltl2dba_R6_comp3_UNREAL.aag","3600.07","3600.01","time limit exceeded"
"Simple BDD Solver (2016)","ltl2dba_R6_comp3_UNREAL.aag","3600.09","3599.9","time limit exceeded"
"Simple BDD Solver w/ Abs.","ltl2dba_R6_comp3_UNREAL.aag","3600.06","3599.9","time limit exceeded"
"Simple BDD Solver w/ Abs. 2","ltl2dba_R6_comp3_UNREAL.aag","3600.04","3600.2","time limit exceeded"
"LazySynt","ltl2dba_R6_comp5_UNREAL.aag","3600.04","3600.5","time limit exceeded"
"LazySynt (genDel)","ltl2dba_R6_comp5_UNREAL.aag","3600.09","3599.9","time limit exceeded"
"Simple BDD Solver (2016)","ltl2dba_R6_comp5_UNREAL.aag","3600.08","3599.9","time limit exceeded"
"Simple BDD Solver w/ Abs.","ltl2dba_R6_comp5_UNREAL.aag","3600.04","3600.2","time limit exceeded"
"Simple BDD Solver w/ Abs. 2","ltl2dba_R6_comp5_UNREAL.aag","3600.04","3600.2","time limit exceeded"
"LazySynt","ltl2dba_theta8_comp4_UNREAL.aag","3600.03","3600.0","time limit exceeded"
"LazySynt (genDel)","ltl2dba_theta8_comp4_UNREAL.aag","3600.04","3600.2","time limit exceeded"
"Simple BDD Solver (2016)","ltl2dba_theta8_comp4_UNREAL.aag","10.992","10.9942","Unrealizable"
"Simple BDD Solver w/ Abs.","ltl2dba_theta8_comp4_UNREAL.aag","48.46","48.4653","Unrealizable"
"Simple BDD Solver w/ Abs. 2","ltl2dba_theta8_comp4_UNREAL.aag","35.34","35.3431","Unrealizable"
"LazySynt","ltl2dba_U1-4_comp3_REAL.aag","4.576","4.5852","No output"
"LazySynt (genDel)","ltl2dba_U1-4_comp3_REAL.aag","4.368","4.37749","No output"
"Simple BDD Solver (2016)","ltl2dba_U1-4_comp3_REAL.aag","22.532","22.5358","Realizable"
"Simple BDD Solver w/ Abs.","ltl2dba_U1-4_comp3_REAL.aag","20.032","20.0345","Realizable"
"Simple BDD Solver w/ Abs. 2","ltl2dba_U1-4_comp3_REAL.aag","42.232","42.2316","Realizable"
"LazySynt","ltl2dba_U1-6_comp2_UNREAL.aag","3299.85","3299.82","No output"
"LazySynt (genDel)","ltl2dba_U1-6_comp2_UNREAL.aag","3600.02","3600.2","time limit exceeded"
"Simple BDD Solver (2016)","ltl2dba_U1-6_comp2_UNREAL.aag","3276.46","3276.6","Maybe realizable"
"Simple BDD Solver w/ Abs.","ltl2dba_U1-6_comp2_UNREAL.aag","3600.06","3599.9","time limit exceeded"
"Simple BDD Solver w/ Abs. 2","ltl2dba_U1-6_comp2_UNREAL.aag","3600.05","3599.9","time limit exceeded"
"LazySynt","ltl2dba_U1-8_comp2_UNREAL.aag","3600.07","3600.31","time limit exceeded"
"LazySynt (genDel)","ltl2dba_U1-8_comp2_UNREAL.aag","3600.09","3600.11","time limit exceeded"
"Simple BDD Solver (2016)","ltl2dba_U1-8_comp2_UNREAL.aag","3600.08","3600.01","time limit exceeded"
"Simple BDD Solver w/ Abs.","ltl2dba_U1-8_comp2_UNREAL.aag","3600.05","3600.2","time limit exceeded"
"Simple BDD Solver w/ Abs. 2","ltl2dba_U1-8_comp2_UNREAL.aag","3600.04","3599.9","time limit exceeded"
"LazySynt","ltl2dpa_C26_comp2_REAL.aag","3600.05","3599.9","time limit exceeded"
"LazySynt (genDel)","ltl2dpa_C26_comp2_REAL.aag","3600.02","3600.01","time limit exceeded"
"Simple BDD Solver (2016)","ltl2dpa_C26_comp2_REAL.aag","25.164","25.1676","Realizable"
"Simple BDD Solver w/ Abs.","ltl2dpa_C26_comp2_REAL.aag","131.488","131.497","Realizable"
"Simple BDD Solver w/ Abs. 2","ltl2dpa_C26_comp2_REAL.aag","3.372","3.37586","Realizable"
"LazySynt","ltl2dpa_E4_comp2_REAL.aag","894.688","894.691","No output"
"LazySynt (genDel)","ltl2dpa_E4_comp2_REAL.aag","3600.04","3600.2","time limit exceeded"
"Simple BDD Solver (2016)","ltl2dpa_E4_comp2_REAL.aag","3600.06","3599.9","time limit exceeded"
"Simple BDD Solver w/ Abs.","ltl2dpa_E4_comp2_REAL.aag","3600.07","3599.9","time limit exceeded"
"Simple BDD Solver w/ Abs. 2","ltl2dpa_E4_comp2_REAL.aag","3600.06","3600.2","time limit exceeded"
"LazySynt","ltl2dpa_U14_comp2_REAL.aag","2616.09","2616.22","No output"
"LazySynt (genDel)","ltl2dpa_U14_comp2_REAL.aag","519.704","519.706","No output"
"Simple BDD Solver (2016)","ltl2dpa_U14_comp2_REAL.aag","3600.05","3600.2","time limit exceeded"
"Simple BDD Solver w/ Abs.","ltl2dpa_U14_comp2_REAL.aag","3600.05","3600.2","time limit exceeded"
"Simple BDD Solver w/ Abs. 2","ltl2dpa_U14_comp2_REAL.aag","3600.06","3599.9","time limit exceeded"
"LazySynt","moving_obstacle_128x128_59glitches.aag","3600.04","3600.0","time limit exceeded"
"LazySynt (genDel)","moving_obstacle_128x128_59glitches.aag","3600.08","3600.31","time limit exceeded"
"Simple BDD Solver (2016)","moving_obstacle_128x128_59glitches.aag","3600.02","3599.9","time limit exceeded"
"Simple BDD Solver w/ Abs.","moving_obstacle_128x128_59glitches.aag","3065.36","3065.23","Realizable"
"Simple BDD Solver w/ Abs. 2","moving_obstacle_128x128_59glitches.aag","3600.06","3599.9","time limit exceeded"
"LazySynt","moving_obstacle_128x128_60glitches.aag","3600.02","3599.91","time limit exceeded"
"LazySynt (genDel)","moving_obstacle_128x128_60glitches.aag","3600.01","3600.0","time limit exceeded"
"Simple BDD Solver (2016)","moving_obstacle_128x128_60glitches.aag","3600.02","3599.9","time limit exceeded"
"Simple BDD Solver w/ Abs.","moving_obstacle_128x128_60glitches.aag","3600.05","3599.9","time limit exceeded"
"Simple BDD Solver w/ Abs. 2","moving_obstacle_128x128_60glitches.aag","3600.06","3599.9","time limit exceeded"
"LazySynt","moving_obstacle_16x16_3glitches.aag","3600.04","3600.5","time limit exceeded"
"LazySynt (genDel)","moving_obstacle_16x16_3glitches.aag","256.836","256.867","No output"
"Simple BDD Solver (2016)","moving_obstacle_16x16_3glitches.aag","0.464","0.468161","Realizable"
"Simple BDD Solver w/ Abs.","moving_obstacle_16x16_3glitches.aag","0.436","0.439366","Realizable"
"Simple BDD Solver w/ Abs. 2","moving_obstacle_16x16_3glitches.aag","0.528","0.530791","Realizable"
"LazySynt","moving_obstacle_16x16_4glitches.aag","3600.07","3600.2","time limit exceeded"
"LazySynt (genDel)","moving_obstacle_16x16_4glitches.aag","754.104","754.076","Unrealizable"
"Simple BDD Solver (2016)","moving_obstacle_16x16_4glitches.aag","0.58","0.584413","Unrealizable"
"Simple BDD Solver w/ Abs.","moving_obstacle_16x16_4glitches.aag","1.04","1.0433","Unrealizable"
"Simple BDD Solver w/ Abs. 2","moving_obstacle_16x16_4glitches.aag","0.848","0.8517","Unrealizable"
"LazySynt","moving_obstacle_24x24_7glitches.aag","3600.06","3600.0","time limit exceeded"
"LazySynt (genDel)","moving_obstacle_24x24_7glitches.aag","836.8","836.775","Realizable not recognized"
"Simple BDD Solver (2016)","moving_obstacle_24x24_7glitches.aag","64.908","64.9086","Realizable"
"Simple BDD Solver w/ Abs.","moving_obstacle_24x24_7glitches.aag","2.548","2.54992","Realizable"
"Simple BDD Solver w/ Abs. 2","moving_obstacle_24x24_7glitches.aag","3.952","3.95361","Realizable"
"LazySynt","moving_obstacle_24x24_8glitches.aag","3600.06","3600.2","time limit exceeded"
"LazySynt (genDel)","moving_obstacle_24x24_8glitches.aag","441.82","441.861","Unrealizable"
"Simple BDD Solver (2016)","moving_obstacle_24x24_8glitches.aag","1.532","1.53609","Unrealizable"
"Simple BDD Solver w/ Abs.","moving_obstacle_24x24_8glitches.aag","2.116","2.11815","Unrealizable"
"Simple BDD Solver w/ Abs. 2","moving_obstacle_24x24_8glitches.aag","2.076","2.08","Unrealizable"
"LazySynt","moving_obstacle_32x32_11glitches.aag","3600.08","3600.0","time limit exceeded"
"LazySynt (genDel)","moving_obstacle_32x32_11glitches.aag","3600.06","3599.9","time limit exceeded"
"Simple BDD Solver (2016)","moving_obstacle_32x32_11glitches.aag","3.624","3.62567","Realizable"
"Simple BDD Solver w/ Abs.","moving_obstacle_32x32_11glitches.aag","2.02","2.02291","Realizable"
"Simple BDD Solver w/ Abs. 2","moving_obstacle_32x32_11glitches.aag","4.212","4.21662","Realizable"
"LazySynt","moving_obstacle_32x32_12glitches.aag","3600.06","3600.2","time limit exceeded"
"LazySynt (genDel)","moving_obstacle_32x32_12glitches.aag","3600.04","3600.31","time limit exceeded"
"Simple BDD Solver (2016)","moving_obstacle_32x32_12glitches.aag","2.192","2.19717","Unrealizable"
"Simple BDD Solver w/ Abs.","moving_obstacle_32x32_12glitches.aag","4.272","4.27711","Unrealizable"
"Simple BDD Solver w/ Abs. 2","moving_obstacle_32x32_12glitches.aag","3.256","3.25928","Unrealizable"
"LazySynt","moving_obstacle_48x48_19glitches.aag","3600.08","3599.9","time limit exceeded"
"LazySynt (genDel)","moving_obstacle_48x48_19glitches.aag","3600.01","3600.2","time limit exceeded"
"Simple BDD Solver (2016)","moving_obstacle_48x48_19glitches.aag","22.896","22.9","Realizable"
"Simple BDD Solver w/ Abs.","moving_obstacle_48x48_19glitches.aag","26.264","26.2684","Realizable"
"Simple BDD Solver w/ Abs. 2","moving_obstacle_48x48_19glitches.aag","27.78","27.7846","Realizable"
"LazySynt","moving_obstacle_48x48_20glitches.aag","3600.01","3600.0","time limit exceeded"
"LazySynt (genDel)","moving_obstacle_48x48_20glitches.aag","3600.03","3599.9","time limit exceeded"
"Simple BDD Solver (2016)","moving_obstacle_48x48_20glitches.aag","27.364","27.3696","Unrealizable"
"Simple BDD Solver w/ Abs.","moving_obstacle_48x48_20glitches.aag","31.172","31.1748","Unrealizable"
"Simple BDD Solver w/ Abs. 2","moving_obstacle_48x48_20glitches.aag","31.068","31.0725","Unrealizable"
"LazySynt","moving_obstacle_64x64_27glitches.aag","3600.05","3600.2","time limit exceeded"
"LazySynt (genDel)","moving_obstacle_64x64_27glitches.aag","3600.1","3600.1","time limit exceeded"
"Simple BDD Solver (2016)","moving_obstacle_64x64_27glitches.aag","110.4","110.41","Realizable"
"Simple BDD Solver w/ Abs.","moving_obstacle_64x64_27glitches.aag","47.648","47.6506","Realizable"
"Simple BDD Solver w/ Abs. 2","moving_obstacle_64x64_27glitches.aag","54.828","54.8302","Realizable"
"LazySynt","moving_obstacle_64x64_28glitches.aag","3600.01","3600.2","time limit exceeded"
"LazySynt (genDel)","moving_obstacle_64x64_28glitches.aag","3600.09","3600.3","time limit exceeded"
"Simple BDD Solver (2016)","moving_obstacle_64x64_28glitches.aag","119.592","119.598","Unrealizable"
"Simple BDD Solver w/ Abs.","moving_obstacle_64x64_28glitches.aag","48.936","48.9442","Unrealizable"
"Simple BDD Solver w/ Abs. 2","moving_obstacle_64x64_28glitches.aag","66.776","66.7853","Unrealizable"
"LazySynt","moving_obstacle_8x8_0glitches.aag","3600.08","3600.0","time limit exceeded"
"LazySynt (genDel)","moving_obstacle_8x8_0glitches.aag","0.76","0.768129","No output"
"Simple BDD Solver (2016)","moving_obstacle_8x8_0glitches.aag","0.064","0.066052","Realizable"
"Simple BDD Solver w/ Abs.","moving_obstacle_8x8_0glitches.aag","0.048","0.050386","Realizable"
"Simple BDD Solver w/ Abs. 2","moving_obstacle_8x8_0glitches.aag","0.06","0.064869","Realizable"
"LazySynt","moving_obstacle_8x8_1glitches.aag","3600.06","3599.9","time limit exceeded"
"LazySynt (genDel)","moving_obstacle_8x8_1glitches.aag","1.136","1.13902","Unrealizable"
"Simple BDD Solver (2016)","moving_obstacle_8x8_1glitches.aag","0.088","0.090485","Unrealizable"
"Simple BDD Solver w/ Abs.","moving_obstacle_8x8_1glitches.aag","0.088","0.090474","Unrealizable"
"Simple BDD Solver w/ Abs. 2","moving_obstacle_8x8_1glitches.aag","0.148","0.150164","Unrealizable"
"LazySynt","moving_obstacle_96x96_43glitches.aag","3600.04","3600.2","time limit exceeded"
"LazySynt (genDel)","moving_obstacle_96x96_43glitches.aag","3600.05","3600.1","time limit exceeded"
"Simple BDD Solver (2016)","moving_obstacle_96x96_43glitches.aag","565.56","565.612","Realizable"
"Simple BDD Solver w/ Abs.","moving_obstacle_96x96_43glitches.aag","348.192","348.196","Realizable"
"Simple BDD Solver w/ Abs. 2","moving_obstacle_96x96_43glitches.aag","559.492","559.543","Realizable"
"LazySynt","moving_obstacle_96x96_44glitches.aag","3600.03","3599.9","time limit exceeded"
"LazySynt (genDel)","moving_obstacle_96x96_44glitches.aag","3600.08","3600.6","time limit exceeded"
"Simple BDD Solver (2016)","moving_obstacle_96x96_44glitches.aag","1283.36","1283.32","Unrealizable"
"Simple BDD Solver w/ Abs.","moving_obstacle_96x96_44glitches.aag","765.772","765.763","Unrealizable"
"Simple BDD Solver w/ Abs. 2","moving_obstacle_96x96_44glitches.aag","1208.78","1208.76","Unrealizable"
"LazySynt","mult_bool_matrix_4_3_5.aag","168.888","168.903","No output"
"LazySynt (genDel)","mult_bool_matrix_4_3_5.aag","166.488","166.504","No output"
"Simple BDD Solver (2016)","mult_bool_matrix_4_3_5.aag","101.38","101.386","Realizable"
"Simple BDD Solver w/ Abs.","mult_bool_matrix_4_3_5.aag","256.544","256.555","Realizable"
"Simple BDD Solver w/ Abs. 2","mult_bool_matrix_4_3_5.aag","280.076","280.071","Realizable"
"LazySynt","mult_bool_matrix_4_4_5.aag","3600.06","3600.6","time limit exceeded"
"LazySynt (genDel)","mult_bool_matrix_4_4_5.aag","3600.1","3600.1","time limit exceeded"
"Simple BDD Solver (2016)","mult_bool_matrix_4_4_5.aag","3600.01","3600.2","time limit exceeded"
"Simple BDD Solver w/ Abs.","mult_bool_matrix_4_4_5.aag","3600.01","3599.9","time limit exceeded"
"Simple BDD Solver w/ Abs. 2","mult_bool_matrix_4_4_5.aag","3600.02","3599.9","time limit exceeded"
"LazySynt","mult_bool_matrix_4_5_5.aag","3600.09","3600.0","time limit exceeded"
"LazySynt (genDel)","mult_bool_matrix_4_5_5.aag","3600.06","3600.3","time limit exceeded"
"Simple BDD Solver (2016)","mult_bool_matrix_4_5_5.aag","3600.02","3599.9","time limit exceeded"
"Simple BDD Solver w/ Abs.","mult_bool_matrix_4_5_5.aag","3600.01","3599.91","time limit exceeded"
"Simple BDD Solver w/ Abs. 2","mult_bool_matrix_4_5_5.aag","3600.08","3600.31","time limit exceeded"
"LazySynt","mult_bool_matrix_5_3_5.aag","354.324","354.375","No output"
"LazySynt (genDel)","mult_bool_matrix_5_3_5.aag","348.932","348.981","No output"
"Simple BDD Solver (2016)","mult_bool_matrix_5_3_5.aag","603.032","603.097","Realizable"
"Simple BDD Solver w/ Abs.","mult_bool_matrix_5_3_5.aag","730.428","730.43","Realizable"
"Simple BDD Solver w/ Abs. 2","mult_bool_matrix_5_3_5.aag","724.824","724.851","Realizable"
"LazySynt","mult_bool_matrix_5_4_5.aag","3600.08","3600.4","time limit exceeded"
"LazySynt (genDel)","mult_bool_matrix_5_4_5.aag","3600.09","3600.3","time limit exceeded"
"Simple BDD Solver (2016)","mult_bool_matrix_5_4_5.aag","3600.06","3600.0","time limit exceeded"
"Simple BDD Solver w/ Abs.","mult_bool_matrix_5_4_5.aag","3600.06","3600.01","time limit exceeded"
"Simple BDD Solver w/ Abs. 2","mult_bool_matrix_5_4_5.aag","3600.06","3600.01","time limit exceeded"
"LazySynt","mult_bool_matrix_5_5_4.aag","3600.06","3600.3","time limit exceeded"
"LazySynt (genDel)","mult_bool_matrix_5_5_4.aag","3600.06","3600.4","time limit exceeded"
"Simple BDD Solver (2016)","mult_bool_matrix_5_5_4.aag","3600.11","3600.0","time limit exceeded"
"Simple BDD Solver w/ Abs.","mult_bool_matrix_5_5_4.aag","3600.0","3600.21","time limit exceeded"
"Simple BDD Solver w/ Abs. 2","mult_bool_matrix_5_5_4.aag","3600.1","3600.31","time limit exceeded"
"LazySynt","mult_bool_matrix_5_5_5.aag","3600.09","3600.0","time limit exceeded"
"LazySynt (genDel)","mult_bool_matrix_5_5_5.aag","3600.06","3600.31","time limit exceeded"
"Simple BDD Solver (2016)","mult_bool_matrix_5_5_5.aag","3600.05","3600.31","time limit exceeded"
"Simple BDD Solver w/ Abs.","mult_bool_matrix_5_5_5.aag","3600.08","3600.0","time limit exceeded"
"Simple BDD Solver w/ Abs. 2","mult_bool_matrix_5_5_5.aag","3600.08","3600.0","time limit exceeded"
"LazySynt","mult_bool_matrix_6_10_7.aag","3600.1","3600.1","time limit exceeded"
"LazySynt (genDel)","mult_bool_matrix_6_10_7.aag","3600.02","3599.9","time limit exceeded"
"Simple BDD Solver (2016)","mult_bool_matrix_6_10_7.aag","3600.08","3600.0","time limit exceeded"
"Simple BDD Solver w/ Abs.","mult_bool_matrix_6_10_7.aag","3600.03","3600.0","time limit exceeded"
"Simple BDD Solver w/ Abs. 2","mult_bool_matrix_6_10_7.aag","3600.04","3600.31","time limit exceeded"
"LazySynt","mult_bool_matrix_6_6_6.aag","3600.08","3600.31","time limit exceeded"
"LazySynt (genDel)","mult_bool_matrix_6_6_6.aag","3600.1","3600.1","time limit exceeded"
"Simple BDD Solver (2016)","mult_bool_matrix_6_6_6.aag","3600.06","3600.31","time limit exceeded"
"Simple BDD Solver w/ Abs.","mult_bool_matrix_6_6_6.aag","3600.02","3599.9","time limit exceeded"
"Simple BDD Solver w/ Abs. 2","mult_bool_matrix_6_6_6.aag","3600.02","3599.9","time limit exceeded"
"LazySynt","mult_bool_matrix_6_7_7.aag","3600.1","3600.0","time limit exceeded"
"LazySynt (genDel)","mult_bool_matrix_6_7_7.aag","3600.06","3600.31","time limit exceeded"
"Simple BDD Solver (2016)","mult_bool_matrix_6_7_7.aag","3600.08","3600.0","time limit exceeded"
"Simple BDD Solver w/ Abs.","mult_bool_matrix_6_7_7.aag","3600.01","3599.9","time limit exceeded"
"Simple BDD Solver w/ Abs. 2","mult_bool_matrix_6_7_7.aag","3600.09","3600.0","time limit exceeded"
"LazySynt","mult_bool_matrix_dyn_4_5.aag","4.96","4.96917","No output"
"LazySynt (genDel)","mult_bool_matrix_dyn_4_5.aag","4.152","4.16154","No output"
"Simple BDD Solver (2016)","mult_bool_matrix_dyn_4_5.aag","1.14","1.14225","Realizable"
"Simple BDD Solver w/ Abs.","mult_bool_matrix_dyn_4_5.aag","2.608","2.61232","Realizable"
"Simple BDD Solver w/ Abs. 2","mult_bool_matrix_dyn_4_5.aag","3.924","3.92527","Realizable"
"LazySynt","mult_bool_matrix_dyn_5_5.aag","2019.58","2019.6","No output"
"LazySynt (genDel)","mult_bool_matrix_dyn_5_5.aag","2028.38","2028.35","No output"
"Simple BDD Solver (2016)","mult_bool_matrix_dyn_5_5.aag","357.948","357.957","Realizable"
"Simple BDD Solver w/ Abs.","mult_bool_matrix_dyn_5_5.aag","426.024","426.059","Realizable"
"Simple BDD Solver w/ Abs. 2","mult_bool_matrix_dyn_5_5.aag","269.9","269.921","Realizable"
"LazySynt","mult_bool_matrix_dyn_5_8.aag","3600.06","3600.31","time limit exceeded"
"LazySynt (genDel)","mult_bool_matrix_dyn_5_8.aag","3600.05","3600.4","time limit exceeded"
"Simple BDD Solver (2016)","mult_bool_matrix_dyn_5_8.aag","3600.0","3599.91","time limit exceeded"
"Simple BDD Solver w/ Abs.","mult_bool_matrix_dyn_5_8.aag","3600.08","3600.0","time limit exceeded"
"Simple BDD Solver w/ Abs. 2","mult_bool_matrix_dyn_5_8.aag","3600.04","3600.21","time limit exceeded"
"LazySynt","mult_bool_matrix_dyn_6_6.aag","3600.04","3600.31","time limit exceeded"
"LazySynt (genDel)","mult_bool_matrix_dyn_6_6.aag","3600.02","3600.31","time limit exceeded"
"Simple BDD Solver (2016)","mult_bool_matrix_dyn_6_6.aag","3600.09","3600.0","time limit exceeded"
"Simple BDD Solver w/ Abs.","mult_bool_matrix_dyn_6_6.aag","3600.09","3600.0","time limit exceeded"
"Simple BDD Solver w/ Abs. 2","mult_bool_matrix_dyn_6_6.aag","3600.08","3600.31","time limit exceeded"
"LazySynt","mult_bool_matrix_dyn_6_7.aag","3600.08","3600.1","time limit exceeded"
"LazySynt (genDel)","mult_bool_matrix_dyn_6_7.aag","3600.09","3600.0","time limit exceeded"
"Simple BDD Solver (2016)","mult_bool_matrix_dyn_6_7.aag","3600.08","3600.31","time limit exceeded"
"Simple BDD Solver w/ Abs.","mult_bool_matrix_dyn_6_7.aag","3600.09","3600.01","time limit exceeded"
"Simple BDD Solver w/ Abs. 2","mult_bool_matrix_dyn_6_7.aag","3600.0","3599.91","time limit exceeded"
"LazySynt","mult_bool_matrix_dyn_7_7.aag","3600.07","3600.4","time limit exceeded"
"LazySynt (genDel)","mult_bool_matrix_dyn_7_7.aag","3600.05","3600.6","time limit exceeded"
"Simple BDD Solver (2016)","mult_bool_matrix_dyn_7_7.aag","3600.07","3600.01","time limit exceeded"
"Simple BDD Solver w/ Abs.","mult_bool_matrix_dyn_7_7.aag","3600.08","3600.0","time limit exceeded"
"Simple BDD Solver w/ Abs. 2","mult_bool_matrix_dyn_7_7.aag","3600.06","3600.0","time limit exceeded"
"LazySynt","mult10.aag","1777.52","1777.52","No output"
"LazySynt (genDel)","mult10.aag","1757.31","1757.31","No output"
"Simple BDD Solver (2016)","mult10.aag","2066.0","2065.93","Realizable"
"Simple BDD Solver w/ Abs.","mult10.aag","3600.06","3599.9","time limit exceeded"
"Simple BDD Solver w/ Abs. 2","mult10.aag","3600.04","3599.9","time limit exceeded"
"LazySynt","mult12.aag","3600.03","3599.9","time limit exceeded"
"LazySynt (genDel)","mult12.aag","3600.09","3600.6","time limit exceeded"
"Simple BDD Solver (2016)","mult12.aag","3600.03","3600.21","time limit exceeded"
"Simple BDD Solver w/ Abs.","mult12.aag","3600.03","3600.2","time limit exceeded"
"Simple BDD Solver w/ Abs. 2","mult12.aag","3600.03","3600.2","time limit exceeded"
"LazySynt","mult16.aag","3600.06","3600.1","time limit exceeded"
"LazySynt (genDel)","mult16.aag","3600.08","3600.0","time limit exceeded"
"Simple BDD Solver (2016)","mult16.aag","3600.09","3600.31","time limit exceeded"
"Simple BDD Solver w/ Abs.","mult16.aag","3600.03","3600.21","time limit exceeded"
"Simple BDD Solver w/ Abs. 2","mult16.aag","3600.03","3599.9","time limit exceeded"
"LazySynt","mult6.aag","0.62","0.629815","No output"
"LazySynt (genDel)","mult6.aag","0.616","0.629939","No output"
"Simple BDD Solver (2016)","mult6.aag","0.3","0.304932","Realizable"
"Simple BDD Solver w/ Abs.","mult6.aag","0.192","0.196617","Realizable"
"Simple BDD Solver w/ Abs. 2","mult6.aag","0.196","0.198644","Realizable"
"LazySynt","mult8.aag","21.724","21.7344","No output"
"LazySynt (genDel)","mult8.aag","21.72","21.7309","No output"
"Simple BDD Solver (2016)","mult8.aag","9.176","9.17824","Realizable"
"Simple BDD Solver w/ Abs.","mult8.aag","32.036","32.0418","Realizable"
"Simple BDD Solver w/ Abs. 2","mult8.aag","31.972","31.9784","Realizable"
"LazySynt","mv16n.aag","0.112","0.121101","No output"
"LazySynt (genDel)","mv16n.aag","0.112","0.121571","No output"
"Simple BDD Solver (2016)","mv16n.aag","0.028","0.032482","Realizable"
"Simple BDD Solver w/ Abs.","mv16n.aag","0.028","0.031801","Realizable"
"Simple BDD Solver w/ Abs. 2","mv16n.aag","0.028","0.031616","Realizable"
"LazySynt","mv20y.aag","0.12","0.128085","No output"
"LazySynt (genDel)","mv20y.aag","0.128","0.137274","No output"
"Simple BDD Solver (2016)","mv20y.aag","0.044","0.04678","Realizable"
"Simple BDD Solver w/ Abs.","mv20y.aag","0.032","0.03585","Realizable"
"Simple BDD Solver w/ Abs. 2","mv20y.aag","0.032","0.035965","Realizable"
"LazySynt","mvs20n.aag","0.092","0.099116","No output"
"LazySynt (genDel)","mvs20n.aag","0.088","0.09867","No output"
"Simple BDD Solver (2016)","mvs20n.aag","0.004","0.006167","Realizable"
"Simple BDD Solver w/ Abs.","mvs20n.aag","0.004","0.005797","Realizable"
"Simple BDD Solver w/ Abs. 2","mvs20n.aag","0.004","0.00628","Realizable"
"LazySynt","mvs24y.aag","0.104","0.115026","No output"
"LazySynt (genDel)","mvs24y.aag","0.108","0.116223","No output"
"Simple BDD Solver (2016)","mvs24y.aag","0.024","0.027213","Realizable"
"Simple BDD Solver w/ Abs.","mvs24y.aag","0.004","0.005703","Realizable"
"Simple BDD Solver w/ Abs. 2","mvs24y.aag","0.004","0.00612","Realizable"
"LazySynt","mvs28n.aag","0.116","0.125542","No output"
"LazySynt (genDel)","mvs28n.aag","0.116","0.125657","No output"
"Simple BDD Solver (2016)","mvs28n.aag","0.016","0.018256","Realizable"
"Simple BDD Solver w/ Abs.","mvs28n.aag","0.04","0.043348","Realizable"
"Simple BDD Solver w/ Abs. 2","mvs28n.aag","0.04","0.042809","Realizable"
"LazySynt","stay12y.aag","34.228","34.2419","No output"
"LazySynt (genDel)","stay12y.aag","33.968","33.9839","No output"
"Simple BDD Solver (2016)","stay12y.aag","0.62","0.622236","Realizable"
"Simple BDD Solver w/ Abs.","stay12y.aag","3.476","3.4785","Realizable"
"Simple BDD Solver w/ Abs. 2","stay12y.aag","3.52","3.52235","Realizable"
"LazySynt","stay14y.aag","526.96","527.067","No output"
"LazySynt (genDel)","stay14y.aag","529.884","529.915","No output"
"Simple BDD Solver (2016)","stay14y.aag","20.576","20.5778","Realizable"
"Simple BDD Solver w/ Abs.","stay14y.aag","247.536","247.529","Realizable"
"Simple BDD Solver w/ Abs. 2","stay14y.aag","260.888","260.895","Realizable"
"LazySynt","stay16n.aag","3600.07","3599.9","time limit exceeded"
"LazySynt (genDel)","stay16n.aag","3600.02","3600.5","time limit exceeded"
"Simple BDD Solver (2016)","stay16n.aag","1069.51","1069.49","Realizable"
"Simple BDD Solver w/ Abs.","stay16n.aag","3600.04","3599.9","time limit exceeded"
"Simple BDD Solver w/ Abs. 2","stay16n.aag","3600.04","3599.9","time limit exceeded"
"LazySynt","stay18n.aag","3600.07","3600.1","time limit exceeded"
"LazySynt (genDel)","stay18n.aag","3600.08","3600.0","time limit exceeded"
"Simple BDD Solver (2016)","stay18n.aag","3600.02","3600.21","time limit exceeded"
"Simple BDD Solver w/ Abs.","stay18n.aag","3600.03","3599.9","time limit exceeded"
"Simple BDD Solver w/ Abs. 2","stay18n.aag","3600.02","3599.9","time limit exceeded"
"LazySynt","stay20y.aag","3600.02","3599.9","time limit exceeded"
"LazySynt (genDel)","stay20y.aag","3600.09","3600.1","time limit exceeded"
"Simple BDD Solver (2016)","stay20y.aag","3600.02","3599.9","time limit exceeded"
"Simple BDD Solver w/ Abs.","stay20y.aag","3600.03","3599.9","time limit exceeded"
"Simple BDD Solver w/ Abs. 2","stay20y.aag","3600.03","3599.9","time limit exceeded"
"LazySynt","very_good_bakery2.aag","3600.1","3600.3","time limit exceeded"
"LazySynt (genDel)","very_good_bakery2.aag","3600.02","3599.9","time limit exceeded"
"Simple BDD Solver (2016)","very_good_bakery2.aag","3600.02","3600.21","time limit exceeded"
"Simple BDD Solver w/ Abs.","very_good_bakery2.aag","3600.08","3600.21","time limit exceeded"
"Simple BDD Solver w/ Abs. 2","very_good_bakery2.aag","0.308","0.324602","Realizable"
"LazySynt","very_good_bakery2.sym.aag","3600.08","3600.6","time limit exceeded"
"LazySynt (genDel)","very_good_bakery2.sym.aag","3600.1","3600.1","time limit exceeded"
"Simple BDD Solver (2016)","very_good_bakery2.sym.aag","3600.1","3600.0","time limit exceeded"
"Simple BDD Solver w/ Abs.","very_good_bakery2.sym.aag","3485.66","20668.1","No output"
"Simple BDD Solver w/ Abs. 2","very_good_bakery2.sym.aag","0.508","3.6811","Realizable"
