"Solver Configuration","Instance","Time","Wall Time","Cost","Result Code","Reference Size","Input Circuit Size"
"LazySynt","6s11_c0to1.aag","3600.0","3599.91","0.0","time limit exceeded","-","-"
"LazySynt (genDel)","6s11_c0to1.aag","3600.09","3600.11","0.0","time limit exceeded","-","-"
"LazySynt","6s16_c0to7.aag","3600.1","3600.6","0.0","time limit exceeded","-","-"
"LazySynt (genDel)","6s16_c0to7.aag","3600.08","3599.9","0.0","time limit exceeded","-","-"
"LazySynt","6s182_c0to3.aag","3600.04","3599.9","0.0","time limit exceeded","-","-"
"LazySynt (genDel)","6s182_c0to3.aag","3600.02","3600.0","0.0","time limit exceeded","-","-"
"LazySynt","6s192_c0to1.aag","3600.1","3600.6","0.0","time limit exceeded","-","-"
"LazySynt (genDel)","6s192_c0to1.aag","3600.08","3599.9","0.0","time limit exceeded","-","-"
"LazySynt","add128n.aag","2.764","2.77384","3560.0","Model checking passed","-","2417"
"LazySynt (genDel)","add128n.aag","2.748","2.75962","3560.0","Model checking passed","-","2417"
"LazySynt","add160n.aag","4.652","4.66133","4456.0","Model checking passed","-","3025"
"LazySynt (genDel)","add160n.aag","4.648","4.65852","4456.0","Model checking passed","-","3025"
"LazySynt","add192n.aag","10.396","10.4062","5352.0","Model checking passed","5352","3633"
"LazySynt (genDel)","add192n.aag","10.348","10.3579","5352.0","Model checking passed","5352","3633"
"LazySynt","add224n.aag","20.228","20.2353","6248.0","Model checking passed","-","4241"
"LazySynt (genDel)","add224n.aag","20.212","20.2229","6248.0","Model checking passed","-","4241"
"LazySynt","add256n.aag","23.748","23.7558","7144.0","Model checking passed","7144","4849"
"LazySynt (genDel)","add256n.aag","24.06","24.0714","7144.0","Model checking passed","7144","4849"
"LazySynt","amba10b24n.aag","1596.44","1596.42","41840.0","Model checking timeout","-","-"
"LazySynt (genDel)","amba10b24n.aag","2670.64","2671.06","41065.0","Model checking timeout","-","-"
"LazySynt","amba10f36unrealy.aag","3600.1","3600.0","0.0","time limit exceeded","-","-"
"LazySynt (genDel)","amba10f36unrealy.aag","3600.02","3599.9","0.0","time limit exceeded","-","-"
"LazySynt","amba12b4unrealy.aag","1777.69","1777.85","0.0","Unrealizable","-","-"
"LazySynt (genDel)","amba12b4unrealy.aag","3600.03","3599.9","0.0","time limit exceeded","-","-"
"LazySynt","amba12f50y.aag","3600.06","3600.11","0.0","time limit exceeded","-","-"
"LazySynt (genDel)","amba12f50y.aag","3600.07","3600.1","0.0","time limit exceeded","-","-"
"LazySynt","amba14c30y.aag","3600.03","3599.9","0.0","time limit exceeded","-","-"
"LazySynt (genDel)","amba14c30y.aag","3600.02","3599.9","0.0","time limit exceeded","-","-"
"LazySynt","amba14f52unrealn.aag","3600.05","3600.6","0.0","time limit exceeded","-","-"
"LazySynt (genDel)","amba14f52unrealn.aag","3600.04","3599.9","0.0","time limit exceeded","-","-"
"LazySynt","amba16c6unrealy.aag","3600.1","3600.31","0.0","time limit exceeded","-","-"
"LazySynt (genDel)","amba16c6unrealy.aag","3600.06","3600.61","0.0","time limit exceeded","-","-"
"LazySynt","amba16f110n.aag","3600.06","3599.9","0.0","time limit exceeded","-","-"
"LazySynt (genDel)","amba16f110n.aag","3600.1","3600.0","0.0","time limit exceeded","-","-"
"LazySynt","amba2match3.aag","0.228","0.231737","0.0","Unrealizable","-","-"
"LazySynt (genDel)","amba2match3.aag","0.224","0.229932","0.0","Unrealizable","-","-"
"LazySynt","amba2match4.aag","0.228","0.232167","0.0","Unrealizable","-","-"
"LazySynt (genDel)","amba2match4.aag","0.224","0.228955","0.0","Unrealizable","-","-"
"LazySynt","amba2match5.aag","0.344","0.347403","0.0","Unrealizable","-","-"
"LazySynt (genDel)","amba2match5.aag","0.36","0.365595","0.0","Unrealizable","-","-"
"LazySynt","amba4match5.aag","3600.11","3600.3","0.0","time limit exceeded","-","-"
"LazySynt (genDel)","amba4match5.aag","3600.02","3600.0","0.0","time limit exceeded","-","-"
"LazySynt","amba5match5.aag","2032.94","2033.07","0.0","Unrealizable","-","-"
"LazySynt (genDel)","amba5match5.aag","2082.5","2082.65","0.0","Unrealizable","-","-"
"LazySynt","amba6c4unrealy.aag","2347.14","2347.04","0.0","Unrealizable","-","-"
"LazySynt (genDel)","amba6c4unrealy.aag","304.168","304.182","0.0","Unrealizable","-","-"
"LazySynt","amba6f40y.aag","3600.02","3600.0","0.0","time limit exceeded","-","-"
"LazySynt (genDel)","amba6f40y.aag","3600.03","3600.2","0.0","time limit exceeded","-","-"
"LazySynt","amba6match5.aag","3600.06","3599.9","0.0","time limit exceeded","-","-"
"LazySynt (genDel)","amba6match5.aag","2309.29","2309.29","0.0","Unrealizable","-","-"
"LazySynt","amba7b10n.aag","405.832","405.863","25441.0","Model checking timeout","-","-"
"LazySynt (genDel)","amba7b10n.aag","669.868","669.942","28920.0","Model checking timeout","-","-"
"LazySynt","amba7f24unrealn.aag","3600.02","3600.0","0.0","time limit exceeded","-","-"
"LazySynt (genDel)","amba7f24unrealn.aag","3600.01","3600.2","0.0","time limit exceeded","-","-"
"LazySynt","amba7match5.aag","3600.03","3600.0","0.0","time limit exceeded","-","-"
"LazySynt (genDel)","amba7match5.aag","3600.01","3600.21","0.0","time limit exceeded","-","-"
"LazySynt","amba8b8unrealy.aag","3600.1","3600.4","0.0","time limit exceeded","-","-"
"LazySynt (genDel)","amba8b8unrealy.aag","3600.06","3600.3","0.0","time limit exceeded","-","-"
"LazySynt","amba8c30n.aag","3600.07","3599.9","0.0","time limit exceeded","-","-"
"LazySynt (genDel)","amba8c30n.aag","3600.03","3599.9","0.0","time limit exceeded","-","-"
"LazySynt","amba8match5.aag","3600.06","3599.91","0.0","time limit exceeded","-","-"
"LazySynt (genDel)","amba8match5.aag","3600.0","3600.01","0.0","time limit exceeded","-","-"
"LazySynt","amba9b40y.aag","2575.93","2576.12","34664.0","Model checking timeout","-","-"
"LazySynt (genDel)","amba9b40y.aag","3600.0","3599.91","0.0","time limit exceeded","-","-"
"LazySynt","amba9c4unrealy.aag","1652.1","1652.19","0.0","Unrealizable","-","-"
"LazySynt (genDel)","amba9c4unrealy.aag","405.52","405.518","0.0","Unrealizable","-","-"
"LazySynt","atom_bakery_sym.aag","0.132","0.136153","0.0","Unrealizable","-","-"
"LazySynt (genDel)","atom_bakery_sym.aag","0.124","0.129644","0.0","Unrealizable","-","-"
"LazySynt","bakery_nondet_sym.aag","0.052","0.055026","0.0","Unrealizable","-","-"
"LazySynt (genDel)","bakery_nondet_sym.aag","0.048","0.053946","0.0","Unrealizable","-","-"
"LazySynt","bakery_sym1.aag","0.052","0.054644","0.0","Unrealizable","-","-"
"LazySynt (genDel)","bakery_sym1.aag","0.048","0.053073","0.0","Unrealizable","-","-"
"LazySynt","beemadd3b1_c0to3.aag","1317.66","1317.67","880.0","Model checking passed","-","876"
"LazySynt (genDel)","beemadd3b1_c0to3.aag","278.716","278.724","880.0","Model checking passed","-","876"
"LazySynt","beembrdg3f1_c0to3.aag","3600.04","3599.9","0.0","time limit exceeded","-","-"
"LazySynt (genDel)","beembrdg3f1_c0to3.aag","3600.08","3599.91","0.0","time limit exceeded","-","-"
"LazySynt","beemextnc3b1_c0to3.aag","3600.01","3600.2","0.0","time limit exceeded","-","-"
"LazySynt (genDel)","beemextnc3b1_c0to3.aag","3600.06","3599.9","0.0","time limit exceeded","-","-"
"LazySynt","beemgear1f1_c0to3.aag","3600.06","3599.9","0.0","time limit exceeded","-","-"
"LazySynt (genDel)","beemgear1f1_c0to3.aag","3600.1","3599.9","0.0","time limit exceeded","-","-"
"LazySynt","beemgear2f1_c0to3.aag","3600.05","3599.9","0.0","time limit exceeded","-","-"
"LazySynt (genDel)","beemgear2f1_c0to3.aag","3600.02","3600.3","0.0","time limit exceeded","-","-"
"LazySynt","beemkrebs3f1_c0to1.aag","3600.07","3599.9","0.0","time limit exceeded","-","-"
"LazySynt (genDel)","beemkrebs3f1_c0to1.aag","3600.04","3599.9","0.0","time limit exceeded","-","-"
"LazySynt","beemloyd2b1_c0to7.aag","2703.79","2703.75","3357.0","Model checking passed","-","3339"
"LazySynt (genDel)","beemloyd2b1_c0to7.aag","474.068","474.079","3347.0","Model checking passed","-","3339"
"LazySynt","beempgsol5b1_c0to1.aag","3600.04","3600.21","0.0","time limit exceeded","-","-"
"LazySynt (genDel)","beempgsol5b1_c0to1.aag","3600.08","3600.6","0.0","time limit exceeded","-","-"
"LazySynt","beemptrsn7b1_c0to3.aag","3600.01","3599.9","0.0","time limit exceeded","-","-"
"LazySynt (genDel)","beemptrsn7b1_c0to3.aag","3600.1","3600.1","0.0","time limit exceeded","-","-"
"LazySynt","beemrshr2b1_c0to7.aag","3600.07","3599.9","0.0","time limit exceeded","-","-"
"LazySynt (genDel)","beemrshr2b1_c0to7.aag","3600.09","3600.6","0.0","time limit exceeded","-","-"
"LazySynt","beemskbn2f1_c0to1.aag","3600.07","3599.9","0.0","time limit exceeded","-","-"
"LazySynt (genDel)","beemskbn2f1_c0to1.aag","3600.06","3600.0","0.0","time limit exceeded","-","-"
"LazySynt","bob12s01_c0to7.aag","3600.02","3599.8","0.0","time limit exceeded","-","-"
"LazySynt (genDel)","bob12s01_c0to7.aag","3600.06","3600.2","0.0","time limit exceeded","-","-"
"LazySynt","bs1024n.aag","6.668","6.67962","34819.0","Model checking passed","34819","34818"
"LazySynt (genDel)","bs1024n.aag","6.684","6.69551","34819.0","Model checking passed","34819","34818"
"LazySynt","bs128n.aag","0.16","0.168635","3203.0","Model checking passed","-","3202"
"LazySynt (genDel)","bs128n.aag","0.16","0.167539","3203.0","Model checking passed","-","3202"
"LazySynt","bs2048y.aag","31.104","31.1169","75777.0","Model checking passed","75777","75776"
"LazySynt (genDel)","bs2048y.aag","31.16","31.1707","75777.0","Model checking passed","75777","75776"
"LazySynt","bs256y.aag","0.452","0.462417","7169.0","Model checking passed","-","7168"
"LazySynt (genDel)","bs256y.aag","0.448","0.458389","7169.0","Model checking passed","-","7168"
"LazySynt","bs512y.aag","1.476","1.48832","15873.0","Model checking passed","-","15872"
"LazySynt (genDel)","bs512y.aag","1.472","1.48393","15873.0","Model checking passed","-","15872"
"LazySynt","cnt11n.aag","1.564","1.574","166.0","Model checking passed","-","165"
"LazySynt (genDel)","cnt11n.aag","1.54","1.55049","166.0","Model checking passed","-","165"
"LazySynt","cnt15y.aag","623.432","623.421","90.0","Model checking passed","90","89"
"LazySynt (genDel)","cnt15y.aag","635.192","635.177","90.0","Model checking passed","90","89"
"LazySynt","cnt20y.aag","3600.05","3600.01","0.0","time limit exceeded","-","-"
"LazySynt (genDel)","cnt20y.aag","3600.02","3600.21","0.0","time limit exceeded","-","-"
"LazySynt","cnt25n.aag","3600.01","3599.81","0.0","time limit exceeded","-","-"
"LazySynt (genDel)","cnt25n.aag","3600.05","3600.21","0.0","time limit exceeded","-","-"
"LazySynt","cnt30n.aag","3600.05","3600.31","0.0","time limit exceeded","-","-"
"LazySynt (genDel)","cnt30n.aag","3600.02","3600.51","0.0","time limit exceeded","-","-"
"LazySynt","cycle_sched_12_3_3.aag","3600.08","3599.9","0.0","time limit exceeded","-","-"
"LazySynt (genDel)","cycle_sched_12_3_3.aag","3600.09","3599.9","0.0","time limit exceeded","-","-"
"LazySynt","cycle_sched_12_7_2.aag","3600.04","3600.0","0.0","time limit exceeded","-","-"
"LazySynt (genDel)","cycle_sched_12_7_2.aag","3600.02","3600.2","0.0","time limit exceeded","-","-"
"LazySynt","cycle_sched_16_3_4.aag","3600.1","3599.9","0.0","time limit exceeded","-","-"
"LazySynt (genDel)","cycle_sched_16_3_4.aag","3600.08","3599.9","0.0","time limit exceeded","-","-"
"LazySynt","cycle_sched_16_7_1.aag","3600.03","3600.0","0.0","time limit exceeded","-","-"
"LazySynt (genDel)","cycle_sched_16_7_1.aag","25.788","25.8002","5976.0","Model checking passed","5976","5928"
"LazySynt","cycle_sched_2_3_1.aag","3600.04","3599.9","0.0","time limit exceeded","-","-"
"LazySynt (genDel)","cycle_sched_2_3_1.aag","1.008","1.01572","533.0","Model checking passed","-","463"
"LazySynt","cycle_sched_2_6_1.aag","3600.02","3600.31","0.0","time limit exceeded","-","-"
"LazySynt (genDel)","cycle_sched_2_6_1.aag","3600.01","3600.2","0.0","time limit exceeded","-","-"
"LazySynt","cycle_sched_20_2_4.aag","3600.03","3600.5","0.0","time limit exceeded","-","-"
"LazySynt (genDel)","cycle_sched_20_2_4.aag","3600.07","3599.9","0.0","time limit exceeded","-","-"
"LazySynt","cycle_sched_24_2_4.aag","3600.09","3599.9","0.0","time limit exceeded","-","-"
"LazySynt (genDel)","cycle_sched_24_2_4.aag","3600.0","3600.0","0.0","time limit exceeded","-","-"
"LazySynt","cycle_sched_28_8_4.aag","3600.08","3600.31","0.0","time limit exceeded","-","-"
"LazySynt (genDel)","cycle_sched_28_8_4.aag","3600.07","3599.9","0.0","time limit exceeded","-","-"
"LazySynt","cycle_sched_4_4_1.aag","3600.08","3599.9","0.0","time limit exceeded","-","-"
"LazySynt (genDel)","cycle_sched_4_4_1.aag","3600.05","3600.2","0.0","time limit exceeded","-","-"
"LazySynt","cycle_sched_4_7_1.aag","3600.02","3600.0","0.0","time limit exceeded","-","-"
"LazySynt (genDel)","cycle_sched_4_7_1.aag","3600.09","3600.6","0.0","time limit exceeded","-","-"
"LazySynt","cycle_sched_4_8_2.aag","3600.09","3599.9","0.0","time limit exceeded","-","-"
"LazySynt (genDel)","cycle_sched_4_8_2.aag","3600.02","3599.9","0.0","time limit exceeded","-","-"
"LazySynt","cycle_sched_6_5_2.aag","3600.04","3600.0","0.0","time limit exceeded","-","-"
"LazySynt (genDel)","cycle_sched_6_5_2.aag","3600.04","3600.2","0.0","time limit exceeded","-","-"
"LazySynt","cycle_sched_6_7_1.aag","3600.1","3599.9","0.0","time limit exceeded","-","-"
"LazySynt (genDel)","cycle_sched_6_7_1.aag","3600.05","3599.9","0.0","time limit exceeded","-","-"
"LazySynt","cycle_sched_8_2_4.aag","3600.04","3600.3","0.0","time limit exceeded","-","-"
"LazySynt (genDel)","cycle_sched_8_2_4.aag","169.688","169.708","2091.0","Model checking passed","-","2011"
"LazySynt","cycle_sched_8_5_1.aag","3600.05","3600.2","0.0","time limit exceeded","-","-"
"LazySynt (genDel)","cycle_sched_8_5_1.aag","3600.1","3599.9","0.0","time limit exceeded","-","-"
"LazySynt","demo-v1_5_UNREAL.aag","0.028","0.032698","0.0","Unrealizable","-","-"
"LazySynt (genDel)","demo-v1_5_UNREAL.aag","0.028","0.033362","0.0","Unrealizable","-","-"
"LazySynt","demo-v10_5_REAL.aag","0.168","0.176011","668.0","Model checking passed","668","666"
"LazySynt (genDel)","demo-v10_5_REAL.aag","0.168","0.176135","668.0","Model checking passed","668","666"
"LazySynt","demo-v11_2_UNREAL.aag","0.024","0.027597","0.0","Unrealizable","-","-"
"LazySynt (genDel)","demo-v11_2_UNREAL.aag","0.024","0.02767","0.0","Unrealizable","-","-"
"LazySynt","demo-v11_5_UNREAL.aag","0.024","0.029842","0.0","Unrealizable","-","-"
"LazySynt (genDel)","demo-v11_5_UNREAL.aag","0.028","0.030448","0.0","Unrealizable","-","-"
"LazySynt","demo-v13_5_REAL.aag","0.076","0.086738","71.0","Model checking passed","-","70"
"LazySynt (genDel)","demo-v13_5_REAL.aag","0.076","0.086761","71.0","Model checking passed","-","70"
"LazySynt","demo-v15_5_REAL.aag","0.112","0.120423","257.0","Model checking passed","-","244"
"LazySynt (genDel)","demo-v15_5_REAL.aag","0.116","0.125883","253.0","Model checking passed","-","244"
"LazySynt","demo-v18_2_UNREAL.aag","3529.39","3529.53","0.0","Unrealizable","-","-"
"LazySynt (genDel)","demo-v18_2_UNREAL.aag","212.408","212.429","0.0","Unrealizable","-","-"
"LazySynt","demo-v18_5_REAL.aag","3600.05","3600.3","0.0","time limit exceeded","-","-"
"LazySynt (genDel)","demo-v18_5_REAL.aag","375.82","375.825","140761.0","Model checking passed","761","587"
"LazySynt","demo-v2_5_UNREAL.aag","0.028","0.032211","0.0","Unrealizable","-","-"
"LazySynt (genDel)","demo-v2_5_UNREAL.aag","0.028","0.033725","0.0","Unrealizable","-","-"
"LazySynt","demo-v22_5_REAL.aag","2.78","2.79075","1962.0","Model checking passed","1861","1849"
"LazySynt (genDel)","demo-v22_5_REAL.aag","2.832","2.84149","1877.0","Model checking passed","1861","1849"
"LazySynt","demo-v24_5_REAL.aag","11.908","11.9169","2267.0","Model checking passed","2059","2055"
"LazySynt (genDel)","demo-v24_5_REAL.aag","3.76","3.77131","2122.0","Model checking passed","2059","2055"
"LazySynt","demo-v25_2_UNREAL.aag","2.408","2.41367","0.0","Unrealizable","-","-"
"LazySynt (genDel)","demo-v25_2_UNREAL.aag","0.776","0.781778","0.0","Unrealizable","-","-"
"LazySynt","demo-v25_5_UNREAL.aag","106.712","106.719","0.0","Unrealizable","-","-"
"LazySynt (genDel)","demo-v25_5_UNREAL.aag","8.24","8.24387","0.0","Unrealizable","-","-"
"LazySynt","demo-v3_5_REAL.aag","0.14","0.149134","493.0","Model checking passed","473","468"
"LazySynt (genDel)","demo-v3_5_REAL.aag","0.148","0.156556","487.0","Model checking passed","473","468"
"LazySynt","demo-v6_2_UNREAL.aag","0.08","0.082996","0.0","Unrealizable","-","-"
"LazySynt (genDel)","demo-v6_2_UNREAL.aag","0.108","0.11143","0.0","Unrealizable","-","-"
"LazySynt","demo-v6_5_REAL.aag","0.976","0.987356","838.0","Model checking passed","-","799"
"LazySynt (genDel)","demo-v6_5_REAL.aag","0.836","0.846406","836.0","Model checking passed","-","799"
"LazySynt","driver_a4n.aag","229.932","229.959","0.0","Unrealizable","-","-"
"LazySynt (genDel)","driver_a4n.aag","232.424","232.431","0.0","Unrealizable","-","-"
"LazySynt","driver_a6n.aag","3600.08","3600.6","0.0","time limit exceeded","-","-"
"LazySynt (genDel)","driver_a6n.aag","3600.07","3599.9","0.0","time limit exceeded","-","-"
"LazySynt","driver_a7n.aag","3600.02","3600.0","0.0","time limit exceeded","-","-"
"LazySynt (genDel)","driver_a7n.aag","3600.01","3599.91","0.0","time limit exceeded","-","-"
"LazySynt","driver_a9y.aag","3600.08","3600.31","0.0","time limit exceeded","-","-"
"LazySynt (genDel)","driver_a9y.aag","3600.08","3599.9","0.0","time limit exceeded","-","-"
"LazySynt","driver_b10y.aag","3600.02","3600.0","0.0","time limit exceeded","-","-"
"LazySynt (genDel)","driver_b10y.aag","3600.01","3599.9","0.0","time limit exceeded","-","-"
"LazySynt","driver_b4n.aag","2184.58","2184.51","0.0","Unrealizable","-","-"
"LazySynt (genDel)","driver_b4n.aag","784.996","785.064","0.0","Unrealizable","-","-"
"LazySynt","driver_b5y.aag","3600.04","3600.5","0.0","time limit exceeded","-","-"
"LazySynt (genDel)","driver_b5y.aag","3600.04","3600.1","0.0","time limit exceeded","-","-"
"LazySynt","driver_b8y.aag","3600.01","3599.9","0.0","time limit exceeded","-","-"
"LazySynt (genDel)","driver_b8y.aag","3600.11","3600.0","0.0","time limit exceeded","-","-"
"LazySynt","driver_c10n.aag","3600.01","3600.6","0.0","time limit exceeded","-","-"
"LazySynt (genDel)","driver_c10n.aag","3600.03","3600.1","0.0","time limit exceeded","-","-"
"LazySynt","driver_c6y.aag","3600.07","3600.0","0.0","time limit exceeded","-","-"
"LazySynt (genDel)","driver_c6y.aag","3600.04","3600.01","0.0","time limit exceeded","-","-"
"LazySynt","driver_c7n.aag","3600.03","3600.31","0.0","time limit exceeded","-","-"
"LazySynt (genDel)","driver_c7n.aag","3600.03","3600.1","0.0","time limit exceeded","-","-"
"LazySynt","driver_c8n.aag","3600.08","3600.0","0.0","time limit exceeded","-","-"
"LazySynt (genDel)","driver_c8n.aag","3600.01","3600.31","0.0","time limit exceeded","-","-"
"LazySynt","driver_d4y.aag","0.248","0.251617","0.0","Unrealizable","-","-"
"LazySynt (genDel)","driver_d4y.aag","0.176","0.178485","0.0","Unrealizable","-","-"
"LazySynt","driver_d7n.aag","125.416","125.429","0.0","Unrealizable","-","-"
"LazySynt (genDel)","driver_d7n.aag","3600.03","3600.31","0.0","time limit exceeded","-","-"
"LazySynt","driver_d8y.aag","734.424","734.509","176772.0","Model checking passed","484","440"
"LazySynt (genDel)","driver_d8y.aag","1424.84","1424.85","0.0","No output","-","-"
"LazySynt","driver_d9y.aag","1229.06","1229.06","157301.0","Model checking passed","-","442"
"LazySynt (genDel)","driver_d9y.aag","3600.03","3600.1","0.0","time limit exceeded","-","-"
"LazySynt","factory_assembly_3x3_1_1errors.aag","0.088","0.092068","0.0","Unrealizable","-","-"
"LazySynt (genDel)","factory_assembly_3x3_1_1errors.aag","0.1","0.104381","0.0","Unrealizable","-","-"
"LazySynt","factory_assembly_4x3_1_1errors.aag","0.796","0.806695","649.0","Model checking passed","180","144"
"LazySynt (genDel)","factory_assembly_4x3_1_1errors.aag","0.688","0.697396","519.0","Model checking passed","180","144"
"LazySynt","factory_assembly_5x3_1_0errors.aag","1.436","1.44954","1593.0","Model checking passed","300","235"
"LazySynt (genDel)","factory_assembly_5x3_1_0errors.aag","2.636","2.64752","1345.0","Model checking passed","300","235"
"LazySynt","factory_assembly_5x3_1_4errors.aag","6.164","6.17515","2117.0","Model checking passed","718","254"
"LazySynt (genDel)","factory_assembly_5x3_1_4errors.aag","7.744","7.75495","2191.0","Model checking passed","718","254"
"LazySynt","factory_assembly_5x3_1_5errors.aag","19.992","20.0023","0.0","Unrealizable","-","-"
"LazySynt (genDel)","factory_assembly_5x3_1_5errors.aag","18.292","18.3033","0.0","Unrealizable","-","-"
"LazySynt","factory_assembly_5x4_1_0errors.aag","21.592","21.6008","0.0","Unrealizable","-","-"
"LazySynt (genDel)","factory_assembly_5x4_1_0errors.aag","20.48","20.4877","0.0","Unrealizable","-","-"
"LazySynt","factory_assembly_5x5_2_0errors.aag","263.216","263.223","21526.0","Model checking passed","2988","446"
"LazySynt (genDel)","factory_assembly_5x5_2_0errors.aag","361.572","361.598","23034.0","Model checking passed","2988","446"
"LazySynt","factory_assembly_5x5_2_10errors.aag","3600.05","3599.9","0.0","time limit exceeded","-","-"
"LazySynt (genDel)","factory_assembly_5x5_2_10errors.aag","3600.05","3600.3","0.0","time limit exceeded","-","-"
"LazySynt","factory_assembly_5x5_2_11errors.aag","3600.08","3599.9","0.0","time limit exceeded","-","-"
"LazySynt (genDel)","factory_assembly_5x5_2_11errors.aag","3600.01","3600.0","0.0","time limit exceeded","-","-"
"LazySynt","factory_assembly_5x5_2_1errors.aag","933.784","933.768","47415.0","Model checking passed","9241","450"
"LazySynt (genDel)","factory_assembly_5x5_2_1errors.aag","667.128","667.16","53155.0","Model checking passed","9241","450"
"LazySynt","factory_assembly_5x6_2_0errors.aag","3600.04","3599.9","0.0","time limit exceeded","-","-"
"LazySynt (genDel)","factory_assembly_5x6_2_0errors.aag","3600.08","3600.31","0.0","time limit exceeded","-","-"
"LazySynt","factory_assembly_7x3_1_0errors.aag","7.456","7.46786","1225.0","Model checking passed","1881","291"
"LazySynt (genDel)","factory_assembly_7x3_1_0errors.aag","9.268","9.28127","1580.0","Model checking passed","1881","291"
"LazySynt","factory_assembly_7x5_2_0errors.aag","1963.89","1963.86","20423.0","Model checking passed","10108","568"
"LazySynt (genDel)","factory_assembly_7x5_2_0errors.aag","1600.62","1600.58","22023.0","Model checking passed","10108","568"
"LazySynt","factory_assembly_7x5_2_10errors.aag","3600.02","3600.0","0.0","time limit exceeded","-","-"
"LazySynt (genDel)","factory_assembly_7x5_2_10errors.aag","3600.04","3599.9","0.0","time limit exceeded","-","-"
"LazySynt","factory_assembly_7x5_2_11errors.aag","3600.09","3600.6","0.0","time limit exceeded","-","-"
"LazySynt (genDel)","factory_assembly_7x5_2_11errors.aag","3600.08","3599.9","0.0","time limit exceeded","-","-"
"LazySynt","gb_s2_r2_comp1_UNREAL.aag","33.664","33.6658","0.0","Unrealizable","-","-"
"LazySynt (genDel)","gb_s2_r2_comp1_UNREAL.aag","14.528","14.5336","0.0","Unrealizable","-","-"
"LazySynt","gb_s2_r2_comp2_UNREAL.aag","3600.1","3600.1","0.0","time limit exceeded","-","-"
"LazySynt (genDel)","gb_s2_r2_comp2_UNREAL.aag","3600.04","3599.9","0.0","time limit exceeded","-","-"
"LazySynt","gb_s2_r2_comp3_REAL.aag","3600.03","3600.2","0.0","time limit exceeded","-","-"
"LazySynt (genDel)","gb_s2_r2_comp3_REAL.aag","3600.1","3599.9","0.0","time limit exceeded","-","-"
"LazySynt","gb_s2_r2_comp4_REAL.aag","3600.01","3600.0","0.0","time limit exceeded","-","-"
"LazySynt (genDel)","gb_s2_r2_comp4_REAL.aag","3600.06","3599.9","0.0","time limit exceeded","-","-"
"LazySynt","gb_s2_r3_comp1_UNREAL.aag","744.728","744.706","0.0","Unrealizable","-","-"
"LazySynt (genDel)","gb_s2_r3_comp1_UNREAL.aag","3600.03","3600.2","0.0","time limit exceeded","-","-"
"LazySynt","gb_s2_r3_comp3_REAL.aag","3600.01","3599.8","0.0","time limit exceeded","-","-"
"LazySynt (genDel)","gb_s2_r3_comp3_REAL.aag","3600.06","3600.0","0.0","time limit exceeded","-","-"
"LazySynt","gb_s2_r4_comp1_UNREAL.aag","3600.06","3599.9","0.0","time limit exceeded","-","-"
"LazySynt (genDel)","gb_s2_r4_comp1_UNREAL.aag","3600.05","3600.2","0.0","time limit exceeded","-","-"
"LazySynt","gb_s2_r4_comp5_REAL.aag","3600.03","3599.8","0.0","time limit exceeded","-","-"
"LazySynt (genDel)","gb_s2_r4_comp5_REAL.aag","3600.06","3600.0","0.0","time limit exceeded","-","-"
"LazySynt","genbuf20b3unrealy.aag","3600.06","3600.31","0.0","time limit exceeded","-","-"
"LazySynt (genDel)","genbuf20b3unrealy.aag","3600.08","3600.3","0.0","time limit exceeded","-","-"
"LazySynt","genbuf20c10n.aag","498.896","498.918","5762.0","Model checking passed","-","1738"
"LazySynt (genDel)","genbuf20c10n.aag","63.136","63.1548","5786.0","Model checking passed","-","1738"
"LazySynt","genbuf24b14n.aag","3600.07","3600.01","0.0","time limit exceeded","-","-"
"LazySynt (genDel)","genbuf24b14n.aag","3600.04","3600.4","0.0","time limit exceeded","-","-"
"LazySynt","genbuf24c2unrealy.aag","3600.1","3600.41","0.0","time limit exceeded","-","-"
"LazySynt (genDel)","genbuf24c2unrealy.aag","3600.07","3600.0","0.0","time limit exceeded","-","-"
"LazySynt","genbuf28c14n.aag","799.004","799.188","9658.0","Model checking passed","-","2534"
"LazySynt (genDel)","genbuf28c14n.aag","174.608","174.658","9664.0","Model checking passed","-","2534"
"LazySynt","genbuf28f27unrealn.aag","3600.03","3599.9","0.0","time limit exceeded","-","-"
"LazySynt (genDel)","genbuf28f27unrealn.aag","3600.05","3600.0","0.0","time limit exceeded","-","-"
"LazySynt","genbuf32b3unrealy.aag","3600.06","3600.0","0.0","time limit exceeded","-","-"
"LazySynt (genDel)","genbuf32b3unrealy.aag","3600.01","3600.61","0.0","time limit exceeded","-","-"
"LazySynt","genbuf32f50n.aag","3600.04","3599.9","0.0","time limit exceeded","-","-"
"LazySynt (genDel)","genbuf32f50n.aag","3600.03","3600.0","0.0","time limit exceeded","-","-"
"LazySynt","genbuf40b14n.aag","3600.01","3600.01","0.0","time limit exceeded","-","-"
"LazySynt (genDel)","genbuf40b14n.aag","3600.08","3600.71","0.0","time limit exceeded","-","-"
"LazySynt","genbuf40f39unrealy.aag","3600.02","3599.9","0.0","time limit exceeded","-","-"
"LazySynt (genDel)","genbuf40f39unrealy.aag","3600.01","3600.3","0.0","time limit exceeded","-","-"
"LazySynt","genbuf48b3unrealy.aag","3600.02","3599.9","0.0","time limit exceeded","-","-"
"LazySynt (genDel)","genbuf48b3unrealy.aag","3600.06","3600.6","0.0","time limit exceeded","-","-"
"LazySynt","genbuf48c20n.aag","3600.1","3600.0","0.0","time limit exceeded","-","-"
"LazySynt (genDel)","genbuf48c20n.aag","1301.27","1301.42","39122.0","Model checking timeout","-","-"
"LazySynt","genbuf56c20y.aag","3600.05","3600.01","0.0","time limit exceeded","-","-"
"LazySynt (genDel)","genbuf56c20y.aag","3600.03","3600.31","0.0","time limit exceeded","-","-"
"LazySynt","genbuf56f55unrealy.aag","3600.09","3599.9","0.0","time limit exceeded","-","-"
"LazySynt (genDel)","genbuf56f55unrealy.aag","3600.1","3600.1","0.0","time limit exceeded","-","-"
"LazySynt","genbuf64b40n.aag","3600.04","3600.11","0.0","time limit exceeded","-","-"
"LazySynt (genDel)","genbuf64b40n.aag","3600.07","3600.71","0.0","time limit exceeded","-","-"
"LazySynt","genbuf64c2unrealy.aag","3600.02","3599.9","0.0","time limit exceeded","-","-"
"LazySynt (genDel)","genbuf64c2unrealy.aag","3600.04","3600.4","0.0","time limit exceeded","-","-"
"LazySynt","good_bakery.false.aag","3600.09","3600.0","0.0","time limit exceeded","-","-"
"LazySynt (genDel)","good_bakery.false.aag","3600.04","3600.6","0.0","time limit exceeded","-","-"
"LazySynt","good_bakery.wuntil.aag","986.868","986.88","9296.0","Model checking passed","5265","5260"
"LazySynt (genDel)","good_bakery.wuntil.aag","910.052","910.03","5265.0","Model checking passed","5265","5260"
"LazySynt","halfadder_shiftedmatch.aag","0.076","0.086211","104.0","Model checking passed","103","99"
"LazySynt (genDel)","halfadder_shiftedmatch.aag","0.076","0.085471","104.0","Model checking passed","103","99"
"LazySynt","interface-with-overflows-k10-liveness.aag","338.948","338.982","3513.0","Model checking passed","4205","1906"
"LazySynt (genDel)","interface-with-overflows-k10-liveness.aag","97.836","97.8553","0.0","Realizable not recognized","-","-"
"LazySynt","interface-with-overflows-k16-liveness.aag","124.64","124.662","3857.0","Model checking passed","4209","1910"
"LazySynt (genDel)","interface-with-overflows-k16-liveness.aag","246.84","246.86","0.0","Realizable not recognized","-","-"
"LazySynt","interface-with-overflows-k5-liveness.aag","21.968","21.9759","0.0","Unrealizable","-","-"
"LazySynt (genDel)","interface-with-overflows-k5-liveness.aag","17.836","17.8458","0.0","Unrealizable","-","-"
"LazySynt","interface-with-overflows-k8-liveness.aag","149.02","149.052","0.0","Unrealizable","-","-"
"LazySynt (genDel)","interface-with-overflows-k8-liveness.aag","87.1","87.1176","0.0","Unrealizable","-","-"
"LazySynt","interface-with-overflows-k9-liveness.aag","156.172","156.19","0.0","Unrealizable","-","-"
"LazySynt (genDel)","interface-with-overflows-k9-liveness.aag","89.216","89.2341","0.0","Unrealizable","-","-"
"LazySynt","load_3c_comp_comp2_REAL.aag","91.588","91.6015","3652.0","Model checking passed","-","3580"
"LazySynt (genDel)","load_3c_comp_comp2_REAL.aag","63.5","63.5184","3676.0","Model checking passed","-","3580"
"LazySynt","load_3c_comp_comp4_REAL.aag","183.38","183.421","5398.0","Model checking passed","5285","5220"
"LazySynt (genDel)","load_3c_comp_comp4_REAL.aag","156.888","156.925","5440.0","Model checking passed","5285","5220"
"LazySynt","load_4c_comp_comp1_UNREAL.aag","16.912","16.9183","0.0","Unrealizable","-","-"
"LazySynt (genDel)","load_4c_comp_comp1_UNREAL.aag","61.492","61.5018","0.0","Unrealizable","-","-"
"LazySynt","load_4c_comp_comp7_REAL.aag","3600.0","3599.8","0.0","time limit exceeded","-","-"
"LazySynt (genDel)","load_4c_comp_comp7_REAL.aag","2096.75","2096.85","11358.0","Model checking passed","11530","10216"
"LazySynt","load_5c_comp_comp3_UNREAL.aag","3600.02","3600.3","0.0","time limit exceeded","-","-"
"LazySynt (genDel)","load_5c_comp_comp3_UNREAL.aag","3600.03","3599.9","0.0","time limit exceeded","-","-"
"LazySynt","load_5c_comp_comp4_REAL.aag","3600.09","3599.9","0.0","time limit exceeded","-","-"
"LazySynt (genDel)","load_5c_comp_comp4_REAL.aag","3600.03","3600.21","0.0","time limit exceeded","-","-"
"LazySynt","load_full_2_comp1_UNREAL.aag","2.104","2.10878","0.0","Unrealizable","-","-"
"LazySynt (genDel)","load_full_2_comp1_UNREAL.aag","1.884","1.88854","0.0","Unrealizable","-","-"
"LazySynt","load_full_2_comp5_REAL.aag","3600.06","3600.0","0.0","time limit exceeded","-","-"
"LazySynt (genDel)","load_full_2_comp5_REAL.aag","22.532","22.5426","4273.0","Model checking passed","3792","3600"
"LazySynt","load_full_3_comp1_UNREAL.aag","3600.06","3599.9","0.0","time limit exceeded","-","-"
"LazySynt (genDel)","load_full_3_comp1_UNREAL.aag","3600.1","3599.9","0.0","time limit exceeded","-","-"
"LazySynt","load_full_3_comp3_REAL.aag","3600.02","3600.2","0.0","time limit exceeded","-","-"
"LazySynt (genDel)","load_full_3_comp3_REAL.aag","3600.06","3600.0","0.0","time limit exceeded","-","-"
"LazySynt","load_full_4_comp1_REAL.aag","3600.06","3600.2","0.0","time limit exceeded","-","-"
"LazySynt (genDel)","load_full_4_comp1_REAL.aag","3600.1","3599.9","0.0","time limit exceeded","-","-"
"LazySynt","load_full_4_comp2_REAL.aag","3600.03","3600.5","0.0","time limit exceeded","-","-"
"LazySynt (genDel)","load_full_4_comp2_REAL.aag","3600.04","3600.0","0.0","time limit exceeded","-","-"
"LazySynt","load_full_5_comp1_REAL.aag","3600.03","3600.2","0.0","time limit exceeded","-","-"
"LazySynt (genDel)","load_full_5_comp1_REAL.aag","3600.05","3600.2","0.0","time limit exceeded","-","-"
"LazySynt","load_full_5_comp2_REAL.aag","3600.08","3599.9","0.0","time limit exceeded","-","-"
"LazySynt (genDel)","load_full_5_comp2_REAL.aag","3600.09","3599.9","0.0","time limit exceeded","-","-"
"LazySynt","load_full_6_comp1_UNREAL.aag","3600.1","3599.9","0.0","time limit exceeded","-","-"
"LazySynt (genDel)","load_full_6_comp1_UNREAL.aag","3600.1","3599.9","0.0","time limit exceeded","-","-"
"LazySynt","load_full_6_comp2_REAL.aag","3600.05","3599.9","0.0","time limit exceeded","-","-"
"LazySynt (genDel)","load_full_6_comp2_REAL.aag","3600.04","3599.9","0.0","time limit exceeded","-","-"
"LazySynt","ltl2dba_beta5_comp3_UNREAL.aag","3600.08","3599.9","0.0","time limit exceeded","-","-"
"LazySynt (genDel)","ltl2dba_beta5_comp3_UNREAL.aag","3600.08","3599.9","0.0","time limit exceeded","-","-"
"LazySynt","ltl2dba_C2-8_comp4_REAL.aag","19.324","19.3327","1750.0","Model checking passed","-","1688"
"LazySynt (genDel)","ltl2dba_C2-8_comp4_REAL.aag","9.224","9.23106","1752.0","Model checking passed","-","1688"
"LazySynt","ltl2dba_E4_comp4_REAL.aag","8.708","8.71773","5529.0","Model checking passed","-","5332"
"LazySynt (genDel)","ltl2dba_E4_comp4_REAL.aag","14.524","14.5324","5348.0","Model checking passed","-","5332"
"LazySynt","ltl2dba_E6_comp2_REAL.aag","1325.23","1325.17","32442.0","Model checking passed","0","32416"
"LazySynt (genDel)","ltl2dba_E6_comp2_REAL.aag","1333.41","1333.35","32480.0","Model checking passed","0","32416"
"LazySynt","ltl2dba_Q4_comp2_REAL.aag","35.76","35.7721","7328.0","Model checking passed","0","6722"
"LazySynt (genDel)","ltl2dba_Q4_comp2_REAL.aag","48.544","48.5514","6966.0","Model checking passed","0","6722"
"LazySynt","ltl2dba_Q6_comp2_REAL.aag","3600.03","3599.9","0.0","time limit exceeded","-","-"
"LazySynt (genDel)","ltl2dba_Q6_comp2_REAL.aag","3600.02","3599.9","0.0","time limit exceeded","-","-"
"LazySynt","ltl2dba_R4_comp3_UNREAL.aag","3600.08","3600.2","0.0","time limit exceeded","-","-"
"LazySynt (genDel)","ltl2dba_R4_comp3_UNREAL.aag","3600.1","3599.9","0.0","time limit exceeded","-","-"
"LazySynt","ltl2dba_R6_comp3_UNREAL.aag","3600.02","3599.8","0.0","time limit exceeded","-","-"
"LazySynt (genDel)","ltl2dba_R6_comp3_UNREAL.aag","3600.02","3599.8","0.0","time limit exceeded","-","-"
"LazySynt","ltl2dba_R6_comp5_UNREAL.aag","3600.02","3599.8","0.0","time limit exceeded","-","-"
"LazySynt (genDel)","ltl2dba_R6_comp5_UNREAL.aag","3600.02","3599.8","0.0","time limit exceeded","-","-"
"LazySynt","ltl2dba_theta8_comp4_UNREAL.aag","3600.1","3599.9","0.0","time limit exceeded","-","-"
"LazySynt (genDel)","ltl2dba_theta8_comp4_UNREAL.aag","3600.0","3599.8","0.0","time limit exceeded","-","-"
"LazySynt","ltl2dba_U1-4_comp3_REAL.aag","4.648","4.6534","2652.0","Model checking passed","-","2620"
"LazySynt (genDel)","ltl2dba_U1-4_comp3_REAL.aag","4.376","4.38572","2650.0","Model checking passed","-","2620"
"LazySynt","ltl2dba_U1-6_comp2_UNREAL.aag","3320.57","3320.39","33038.0","Seems like passed","-","32644"
"LazySynt (genDel)","ltl2dba_U1-6_comp2_UNREAL.aag","3600.08","3599.9","0.0","time limit exceeded","-","-"
"LazySynt","ltl2dba_U1-8_comp2_UNREAL.aag","3600.03","3599.91","0.0","time limit exceeded","-","-"
"LazySynt (genDel)","ltl2dba_U1-8_comp2_UNREAL.aag","3600.03","3599.91","0.0","time limit exceeded","-","-"
"LazySynt","ltl2dpa_C26_comp2_REAL.aag","3600.08","3599.9","0.0","time limit exceeded","-","-"
"LazySynt (genDel)","ltl2dpa_C26_comp2_REAL.aag","3600.08","3599.91","0.0","time limit exceeded","-","-"
"LazySynt","ltl2dpa_E4_comp2_REAL.aag","916.876","916.84","30819.0","Model checking passed","10864","10620"
"LazySynt (genDel)","ltl2dpa_E4_comp2_REAL.aag","3600.09","3600.2","0.0","time limit exceeded","-","-"
"LazySynt","ltl2dpa_U14_comp2_REAL.aag","2665.17","2665.05","42721.0","Model checking passed","5716","5685"
"LazySynt (genDel)","ltl2dpa_U14_comp2_REAL.aag","517.24","517.233","29862.0","Model checking passed","5716","5685"
"LazySynt","moving_obstacle_128x128_59glitches.aag","3600.08","3599.9","0.0","time limit exceeded","-","-"
"LazySynt (genDel)","moving_obstacle_128x128_59glitches.aag","3600.04","3599.91","0.0","time limit exceeded","-","-"
"LazySynt","moving_obstacle_128x128_60glitches.aag","3600.06","3599.9","0.0","time limit exceeded","-","-"
"LazySynt (genDel)","moving_obstacle_128x128_60glitches.aag","3600.05","3599.9","0.0","time limit exceeded","-","-"
"LazySynt","moving_obstacle_16x16_3glitches.aag","3600.03","3599.8","0.0","time limit exceeded","-","-"
"LazySynt (genDel)","moving_obstacle_16x16_3glitches.aag","256.504","256.507","5196.0","Model checking passed","3834","428"
"LazySynt","moving_obstacle_16x16_4glitches.aag","3600.02","3599.8","0.0","time limit exceeded","-","-"
"LazySynt (genDel)","moving_obstacle_16x16_4glitches.aag","749.472","749.508","0.0","Unrealizable","-","-"
"LazySynt","moving_obstacle_24x24_7glitches.aag","3600.03","3599.8","0.0","time limit exceeded","-","-"
"LazySynt (genDel)","moving_obstacle_24x24_7glitches.aag","843.728","843.772","0.0","Realizable not recognized","-","-"
"LazySynt","moving_obstacle_24x24_8glitches.aag","3600.02","3599.8","0.0","time limit exceeded","-","-"
"LazySynt (genDel)","moving_obstacle_24x24_8glitches.aag","435.572","435.609","0.0","Unrealizable","-","-"
"LazySynt","moving_obstacle_32x32_11glitches.aag","3600.02","3599.8","0.0","time limit exceeded","-","-"
"LazySynt (genDel)","moving_obstacle_32x32_11glitches.aag","3600.08","3599.9","0.0","time limit exceeded","-","-"
"LazySynt","moving_obstacle_32x32_12glitches.aag","3600.02","3599.8","0.0","time limit exceeded","-","-"
"LazySynt (genDel)","moving_obstacle_32x32_12glitches.aag","3600.06","3600.2","0.0","time limit exceeded","-","-"
"LazySynt","moving_obstacle_48x48_19glitches.aag","3600.02","3599.8","0.0","time limit exceeded","-","-"
"LazySynt (genDel)","moving_obstacle_48x48_19glitches.aag","3600.07","3599.9","0.0","time limit exceeded","-","-"
"LazySynt","moving_obstacle_48x48_20glitches.aag","3600.06","3599.9","0.0","time limit exceeded","-","-"
"LazySynt (genDel)","moving_obstacle_48x48_20glitches.aag","3600.06","3600.2","0.0","time limit exceeded","-","-"
"LazySynt","moving_obstacle_64x64_27glitches.aag","3600.01","3599.8","0.0","time limit exceeded","-","-"
"LazySynt (genDel)","moving_obstacle_64x64_27glitches.aag","3600.09","3600.0","0.0","time limit exceeded","-","-"
"LazySynt","moving_obstacle_64x64_28glitches.aag","3600.06","3599.9","0.0","time limit exceeded","-","-"
"LazySynt (genDel)","moving_obstacle_64x64_28glitches.aag","3600.01","3599.9","0.0","time limit exceeded","-","-"
"LazySynt","moving_obstacle_8x8_0glitches.aag","3600.03","3599.8","0.0","time limit exceeded","-","-"
"LazySynt (genDel)","moving_obstacle_8x8_0glitches.aag","0.76","0.767985","712.0","Model checking passed","513","306"
"LazySynt","moving_obstacle_8x8_1glitches.aag","3600.03","3599.8","0.0","time limit exceeded","-","-"
"LazySynt (genDel)","moving_obstacle_8x8_1glitches.aag","1.144","1.14671","0.0","Unrealizable","-","-"
"LazySynt","moving_obstacle_96x96_43glitches.aag","3600.1","3599.9","0.0","time limit exceeded","-","-"
"LazySynt (genDel)","moving_obstacle_96x96_43glitches.aag","3600.01","3599.9","0.0","time limit exceeded","-","-"
"LazySynt","moving_obstacle_96x96_44glitches.aag","3600.07","3599.9","0.0","time limit exceeded","-","-"
"LazySynt (genDel)","moving_obstacle_96x96_44glitches.aag","3600.06","3599.9","0.0","time limit exceeded","-","-"
"LazySynt","mult_bool_matrix_4_3_5.aag","161.072","161.083","895.0","Model checking passed","-","775"
"LazySynt (genDel)","mult_bool_matrix_4_3_5.aag","167.192","167.203","895.0","Model checking passed","-","775"
"LazySynt","mult_bool_matrix_4_4_5.aag","3600.04","3599.9","0.0","time limit exceeded","-","-"
"LazySynt (genDel)","mult_bool_matrix_4_4_5.aag","3600.04","3599.9","0.0","time limit exceeded","-","-"
"LazySynt","mult_bool_matrix_4_5_5.aag","3600.04","3599.9","0.0","time limit exceeded","-","-"
"LazySynt (genDel)","mult_bool_matrix_4_5_5.aag","3600.01","3600.2","0.0","time limit exceeded","-","-"
"LazySynt","mult_bool_matrix_5_3_5.aag","369.216","369.238","1166.0","Model checking passed","1166","1016"
"LazySynt (genDel)","mult_bool_matrix_5_3_5.aag","347.28","347.3","1166.0","Model checking passed","1166","1016"
"LazySynt","mult_bool_matrix_5_4_5.aag","3600.04","3599.9","0.0","time limit exceeded","-","-"
"LazySynt (genDel)","mult_bool_matrix_5_4_5.aag","3600.03","3599.9","0.0","time limit exceeded","-","-"
"LazySynt","mult_bool_matrix_5_5_4.aag","3600.02","3599.9","0.0","time limit exceeded","-","-"
"LazySynt (genDel)","mult_bool_matrix_5_5_4.aag","3600.02","3599.9","0.0","time limit exceeded","-","-"
"LazySynt","mult_bool_matrix_5_5_5.aag","3600.03","3599.9","0.0","time limit exceeded","-","-"
"LazySynt (genDel)","mult_bool_matrix_5_5_5.aag","3600.02","3599.9","0.0","time limit exceeded","-","-"
"LazySynt","mult_bool_matrix_6_10_7.aag","3600.07","3599.91","0.0","time limit exceeded","-","-"
"LazySynt (genDel)","mult_bool_matrix_6_10_7.aag","3600.07","3599.9","0.0","time limit exceeded","-","-"
"LazySynt","mult_bool_matrix_6_6_6.aag","3600.04","3599.9","0.0","time limit exceeded","-","-"
"LazySynt (genDel)","mult_bool_matrix_6_6_6.aag","3600.04","3599.9","0.0","time limit exceeded","-","-"
"LazySynt","mult_bool_matrix_6_7_7.aag","3600.04","3599.9","0.0","time limit exceeded","-","-"
"LazySynt (genDel)","mult_bool_matrix_6_7_7.aag","3600.04","3599.9","0.0","time limit exceeded","-","-"
"LazySynt","mult_bool_matrix_dyn_4_5.aag","4.972","4.97982","837.0","Model checking passed","837","822"
"LazySynt (genDel)","mult_bool_matrix_dyn_4_5.aag","4.88","4.88814","837.0","Model checking passed","837","822"
"LazySynt","mult_bool_matrix_dyn_5_5.aag","2020.22","2020.16","1044.0","Model checking passed","1044","1029"
"LazySynt (genDel)","mult_bool_matrix_dyn_5_5.aag","2028.61","2028.54","1044.0","Model checking passed","1044","1029"
"LazySynt","mult_bool_matrix_dyn_5_8.aag","3600.02","3599.9","0.0","time limit exceeded","-","-"
"LazySynt (genDel)","mult_bool_matrix_dyn_5_8.aag","3600.01","3599.9","0.0","time limit exceeded","-","-"
"LazySynt","mult_bool_matrix_dyn_6_6.aag","3600.09","3600.01","0.0","time limit exceeded","-","-"
"LazySynt (genDel)","mult_bool_matrix_dyn_6_6.aag","3600.09","3600.01","0.0","time limit exceeded","-","-"
"LazySynt","mult_bool_matrix_dyn_6_7.aag","3600.03","3599.9","0.0","time limit exceeded","-","-"
"LazySynt (genDel)","mult_bool_matrix_dyn_6_7.aag","3600.1","3600.31","0.0","time limit exceeded","-","-"
"LazySynt","mult_bool_matrix_dyn_7_7.aag","3600.04","3599.91","0.0","time limit exceeded","-","-"
"LazySynt (genDel)","mult_bool_matrix_dyn_7_7.aag","3600.03","3599.91","0.0","time limit exceeded","-","-"
"LazySynt","mult10.aag","1813.61","1813.55","260988.0","Model checking timeout","-","-"
"LazySynt (genDel)","mult10.aag","1788.52","1788.46","260988.0","Model checking timeout","-","-"
"LazySynt","mult12.aag","3600.06","3599.9","0.0","time limit exceeded","-","-"
"LazySynt (genDel)","mult12.aag","3600.05","3599.9","0.0","time limit exceeded","-","-"
"LazySynt","mult16.aag","3600.02","3599.9","0.0","time limit exceeded","-","-"
"LazySynt (genDel)","mult16.aag","3600.02","3599.9","0.0","time limit exceeded","-","-"
"LazySynt","mult6.aag","0.608","0.621096","3786.0","Model checking passed","569","322"
"LazySynt (genDel)","mult6.aag","0.608","0.618404","3786.0","Model checking passed","569","322"
"LazySynt","mult8.aag","18.268","18.2822","28187.0","Model checking passed","1081","604"
"LazySynt (genDel)","mult8.aag","21.972","21.9855","28187.0","Model checking passed","1081","604"
"LazySynt","mv16n.aag","0.112","0.120993","384.0","Model checking passed","384","369"
"LazySynt (genDel)","mv16n.aag","0.112","0.120913","384.0","Model checking passed","384","369"
"LazySynt","mv20y.aag","0.12","0.128462","284.0","Model checking passed","284","265"
"LazySynt (genDel)","mv20y.aag","0.128","0.136601","284.0","Model checking passed","284","265"
"LazySynt","mvs20n.aag","0.088","0.098685","333.0","Model checking passed","-","314"
"LazySynt (genDel)","mvs20n.aag","0.088","0.098657","333.0","Model checking passed","-","314"
"LazySynt","mvs24y.aag","0.104","0.114932","209.0","Model checking passed","209","186"
"LazySynt (genDel)","mvs24y.aag","0.104","0.115694","209.0","Model checking passed","209","186"
"LazySynt","mvs28n.aag","0.116","0.125672","469.0","Model checking passed","469","442"
"LazySynt (genDel)","mvs28n.aag","0.116","0.125487","469.0","Model checking passed","469","442"
"LazySynt","stay12y.aag","35.436","35.4435","576.0","Model checking passed","576","563"
"LazySynt (genDel)","stay12y.aag","34.056","34.0625","576.0","Model checking passed","576","563"
"LazySynt","stay14y.aag","532.244","532.227","795.0","Model checking passed","-","780"
"LazySynt (genDel)","stay14y.aag","531.928","531.909","795.0","Model checking passed","-","780"
"LazySynt","stay16n.aag","3600.07","3600.2","0.0","time limit exceeded","-","-"
"LazySynt (genDel)","stay16n.aag","3600.1","3599.9","0.0","time limit exceeded","-","-"
"LazySynt","stay18n.aag","3600.03","3599.9","0.0","time limit exceeded","-","-"
"LazySynt (genDel)","stay18n.aag","3600.03","3599.9","0.0","time limit exceeded","-","-"
"LazySynt","stay20y.aag","3600.05","3599.9","0.0","time limit exceeded","-","-"
"LazySynt (genDel)","stay20y.aag","3600.05","3599.9","0.0","time limit exceeded","-","-"
"LazySynt","very_good_bakery2.aag","3600.06","3599.9","0.0","time limit exceeded","-","-"
"LazySynt (genDel)","very_good_bakery2.aag","3600.06","3599.9","0.0","time limit exceeded","-","-"
"LazySynt","very_good_bakery2.sym.aag","3600.06","3599.9","0.0","time limit exceeded","-","-"
"LazySynt (genDel)","very_good_bakery2.sym.aag","3600.06","3599.9","0.0","time limit exceeded","-","-"
